<svg version="1.2" baseProfile="tiny-ps" xmlns="http://www.w3.org/2000/svg" viewBox="0 0 4000 4000" width="4000" height="4000">
	<title>2299-ai</title>
	<style>
		tspan { white-space:pre }
		.shp0 { fill: #adbaca } 
		.shp1 { fill: #ffffff } 
		.shp2 { fill: #000072 } 
		.shp3 { fill: #ffb8df } 
		.shp4 { fill: #6b184e } 
		.shp5 { fill: none;stroke: #000072;stroke-linecap:round;stroke-width: 39.249 } 
		.shp6 { fill: none;stroke: #000072;stroke-linecap:round;stroke-width: 31.399 } 
		.shp7 { fill: #fdd800 } 
	</style>
	<g id="Layer 1">
		<g id="&lt;Group&gt;">
			<g id="&lt;Group&gt;">
				<g id="&lt;Group&gt;">
					<g id="&lt;Group&gt;">
						<g id="&lt;Group&gt;">
							<path id="&lt;Path&gt;" class="shp0" d="M2316.89 2880.83C2313.94 2888.17 2309.74 2896.69 2304.13 2906.11C2292.47 2925.73 2274.81 2949.4 2250.32 2975.58C2208.24 3020.44 2146.03 3072.64 2059.41 3124.06C2015.29 3150.24 1964.82 3176.18 1907.44 3200.91C1898.33 3204.83 1889.07 3208.72 1879.61 3212.57C1912.13 3221.62 1938.84 3240.42 1959.72 3268.97C1989.11 3309.16 2003.24 3400.96 1843.97 3388.25C1690.47 3375.96 1609.26 3250.83 1660.56 3186.47C1683.4 3157.81 1703.54 3130.06 1721.12 3103.57C1726.34 3095.72 1731.36 3087.95 1736.11 3080.3C1770.77 3024.8 1793.69 2975.38 1806.09 2935.23L1678.97 2336.44L1668.88 2288.99L1731.09 2263.13L2214.88 2062.09C2234.85 2101.46 2252.4 2139.8 2267.67 2177.09C2275.44 2196.05 2282.62 2214.69 2289.29 2233.06C2402.29 2545.41 2358.53 2775.88 2316.89 2880.83Z" />
						</g>
					</g>
				</g>
				<g id="&lt;Group&gt;">
					<g id="&lt;Group&gt;">
						<g id="&lt;Group&gt;">
							<path id="&lt;Path&gt;" class="shp1" d="M2316.89 2880.83C2307.9 2903.48 2286.62 2936.8 2250.32 2975.58C2176.06 2987.82 2099.33 2966.32 2049.75 2911.17C1933.22 2781.57 2003.21 2696.56 1985.23 2489.71C1983.74 2472.6 1981.81 2456.15 1979.66 2440.53C1965.6 2339.35 2027.93 2243.15 2125.82 2213.87C2182.42 2196.91 2241.25 2205.23 2289.29 2233.06C2402.29 2545.41 2358.53 2775.88 2316.89 2880.83Z" />
						</g>
					</g>
				</g>
				<g id="&lt;Group&gt;">
					<g id="&lt;Group&gt;">
						<g id="&lt;Group&gt;">
							<path id="&lt;Path&gt;" class="shp1" d="M1843.97 3388.25C1690.47 3375.96 1609.26 3250.83 1660.56 3186.47C1683.4 3157.81 1703.54 3130.06 1721.12 3103.57C1726.34 3095.72 1731.36 3087.95 1736.11 3080.3C1733.88 3101.22 1734.31 3129.99 1748.24 3151.18C1772.03 3187.37 1852.49 3197.97 1907.44 3200.91C1898.33 3204.83 1889.07 3208.72 1879.61 3212.57C1912.13 3221.62 1938.84 3240.42 1959.72 3268.97C1989.11 3309.16 2003.24 3400.96 1843.97 3388.25Z" />
						</g>
					</g>
				</g>
				<g id="&lt;Group&gt;">
					<g id="&lt;Group&gt;">
						<g id="&lt;Group&gt;">
							<path id="&lt;Path&gt;" class="shp2" d="M1872.65 3405.14C1863.2 3405.14 1853.24 3404.72 1842.73 3403.88C1729.09 3394.8 1662.41 3330.74 1639.84 3278.65C1623.54 3241.02 1626.62 3203.85 1648.29 3176.68C1718.51 3088.64 1769.23 3001.24 1791.1 2930.59C1793.67 2922.31 1802.44 2917.66 1810.74 2920.24C1819.02 2922.8 1823.66 2931.59 1821.09 2939.88C1798.1 3014.18 1745.44 3105.23 1672.84 3196.26C1658.43 3214.32 1656.95 3239.14 1668.65 3266.16C1689.27 3313.75 1751.87 3365.12 1845.23 3372.58C1904.53 3377.32 1944.33 3367.05 1957.4 3343.67C1968.56 3323.7 1959.85 3295.75 1947.05 3278.24C1919.26 3240.24 1875.85 3227.81 1875.41 3227.68L1831.15 3215.36L1873.7 3198.02C2157.17 3082.51 2278 2936.24 2302.29 2875.04C2333.98 2795.16 2420.34 2500.99 2200.87 2069.21C2196.94 2061.48 2200.02 2052.03 2207.75 2048.1C2215.49 2044.17 2224.94 2047.25 2228.86 2054.98C2454.29 2498.49 2364.39 2803.65 2331.47 2886.62C2306.49 2949.57 2188.55 3095.6 1919.11 3212.96C1936.12 3222.69 1956.27 3237.66 1972.39 3259.7C1991.55 3285.9 2002.82 3326.76 1984.81 3358.98C1967.66 3389.67 1929.99 3405.14 1872.65 3405.14Z" />
						</g>
					</g>
				</g>
				<g id="&lt;Group&gt;">
					<g id="&lt;Group&gt;">
						<g id="&lt;Group&gt;">
							<path id="&lt;Path&gt;" class="shp2" d="M1792.92 3214.91C1793.85 3214.92 1794.22 3214.9 1794.68 3214.85L1796.08 3214.71L1798.85 3214.45L1804.34 3213.9C1807.98 3213.44 1811.56 3213.09 1815.12 3212.56C1822.22 3211.62 1829.17 3210.47 1835.97 3209.09C1842.79 3207.75 1849.42 3206.06 1856 3204.6C1862.63 3203.27 1869.05 3201.53 1875.92 3200.86L1876.73 3200.79C1883.53 3200.13 1889.59 3205.11 1890.25 3211.91C1890.76 3217.21 1887.84 3222.05 1883.32 3224.25C1876.15 3227.72 1868.42 3229.8 1860.6 3230.81C1852.78 3232 1844.82 3231.78 1837.02 3231.18C1829.21 3230.57 1821.5 3229.16 1814.01 3227.13C1810.27 3226.06 1806.57 3224.89 1802.97 3223.44C1801.17 3222.7 1799.38 3221.99 1797.63 3221.12C1796.75 3220.7 1795.87 3220.3 1795.01 3219.81L1793.73 3219.1C1793.3 3218.85 1792.77 3218.62 1792.82 3218.42C1791.85 3218.39 1791.09 3217.58 1791.12 3216.61C1791.14 3215.65 1791.95 3214.89 1792.92 3214.91Z" />
						</g>
					</g>
				</g>
				<g id="&lt;Group&gt;">
					<g id="&lt;Group&gt;">
						<g id="&lt;Group&gt;">
							<path id="&lt;Path&gt;" class="shp2" d="M1912.05 3288.16C1919.35 3290.35 1926.46 3293.37 1933.41 3296.91C1940.34 3300.49 1947.06 3304.71 1953.46 3309.67C1959.91 3314.59 1965.78 3320.54 1971.13 3327.23C1976.52 3333.96 1980.71 3341.86 1984.14 3350.35C1987.22 3357.99 1983.53 3366.68 1975.89 3369.77C1968.25 3372.86 1959.56 3369.16 1956.47 3361.53C1955.86 3360.01 1955.51 3358.45 1955.41 3356.91L1955.41 3356.77C1955.04 3350.77 1954.23 3344.39 1951.95 3338.16C1949.7 3331.96 1946.74 3325.64 1942.75 3319.76C1938.82 3313.85 1934.21 3308.16 1929.05 3302.85C1923.88 3297.56 1918.25 3292.54 1912.05 3288.16Z" />
						</g>
					</g>
				</g>
				<g id="&lt;Group&gt;">
					<g id="&lt;Group&gt;">
						<g id="&lt;Group&gt;">
							<path id="&lt;Path&gt;" class="shp2" d="M1861.3 3310.03C1868.46 3312.44 1875.41 3315.82 1882.07 3319.82C1888.73 3323.84 1895.07 3328.62 1900.96 3334.13C1906.9 3339.59 1912.3 3345.89 1916.9 3352.93C1921.73 3359.88 1925.24 3367.74 1928.38 3375.91C1931.35 3383.61 1927.51 3392.25 1919.81 3395.21C1912.11 3398.18 1903.47 3394.34 1900.5 3386.65C1899.91 3385.12 1899.59 3383.55 1899.52 3382L1899.51 3381.63C1899.23 3375.32 1898.78 3368.72 1896.91 3362.31C1895.29 3355.84 1892.77 3349.39 1889.39 3343.23C1886.08 3337.04 1882.04 3331.03 1877.32 3325.44C1872.59 3319.86 1867.29 3314.6 1861.3 3310.03Z" />
						</g>
					</g>
				</g>
				<g id="&lt;Group&gt;" style="opacity: 0.302">
					<g id="&lt;Group&gt;">
						<g id="&lt;Group&gt;">
							<path id="&lt;Path&gt;" class="shp2" d="M1968.59 3355.39C1953.01 3378.16 1916.46 3394.02 1843.97 3388.25C1690.47 3375.96 1609.26 3250.83 1660.56 3186.47C1683.4 3157.81 1703.54 3130.06 1721.12 3103.57C1726.34 3095.72 1731.36 3087.95 1736.11 3080.3C1770.77 3024.8 1793.69 2975.38 1806.09 2935.23L1839.1 2914.98C1829.09 2955.4 1809.98 3005.37 1780.5 3061.69C1776.46 3069.46 1772.18 3077.35 1767.75 3085.32C1752.75 3112.25 1735.52 3140.47 1715.86 3169.67C1671.78 3235.25 1747.73 3358.38 1885.26 3366.89C1923.37 3369.25 1950.22 3364.46 1968.59 3355.39Z" />
						</g>
					</g>
				</g>
				<g id="&lt;Group&gt;">
					<g id="&lt;Group&gt;">
						<g id="&lt;Group&gt;">
							<g id="&lt;Group&gt;">
								<path id="&lt;Path&gt;" class="shp3" d="M1510.41 2798.72C1335.63 2871.72 1220.85 2816.46 1166.06 2632.94C1083.88 2357.65 1223.54 2105.87 1076.94 1887.2C944.55 1689.73 644.5 1731.06 464.16 1844.2C455.4 1849.7 461.73 1863.19 471.52 1859.88C567.18 1827.52 754.89 1779.81 883.78 1848.1C1063.31 1943.22 1063.22 2102.21 1056.05 2214.28C1048.84 2326.89 1012.67 2565.41 1100.14 2752.03C1197.35 2959.41 1419.44 2972.09 1525.92 2923.13" />
							</g>
						</g>
					</g>
					<g id="&lt;Group&gt;">
						<g id="&lt;Group&gt;">
							<g id="&lt;Group&gt;">
								<path id="&lt;Path&gt;" class="shp2" d="M1405.13 2949.04C1298.12 2949.04 1167.52 2901.56 1097.92 2753.07C1021.76 2590.59 1039.17 2386.83 1049.57 2265.08C1051.15 2246.54 1052.64 2229.03 1053.6 2214.13C1059.51 2121.75 1070.51 1949.81 882.63 1850.27C755.47 1782.9 570.98 1828.83 472.31 1862.2C465.87 1864.39 460.73 1860.74 458.69 1856.43C456.63 1852.1 457.05 1845.77 462.86 1842.13C558.08 1782.39 679.42 1746.77 787.64 1746.77C787.94 1746.77 788.23 1746.77 788.54 1746.77C878.61 1746.93 1002.12 1771.19 1078.97 1885.83C1161.56 2009.02 1153.8 2142.75 1145.58 2284.34C1139.1 2396.06 1132.39 2511.58 1168.41 2632.23C1192.59 2713.24 1234.85 2768.53 1294.01 2796.58C1393.58 2843.78 1508.32 2796.94 1509.46 2796.46L1511.36 2800.99C1510.19 2801.47 1393.51 2849.15 1291.95 2801.03C1231.46 2772.36 1188.31 2716.04 1163.71 2633.64C1127.44 2512.16 1134.18 2396.2 1140.68 2284.05C1148.85 2143.31 1156.57 2010.38 1074.9 1888.56C938.19 1684.65 630.43 1742.79 465.46 1846.28C461.96 1848.48 462.01 1851.99 463.12 1854.33C464.22 1856.64 466.87 1858.87 470.74 1857.55C570.15 1823.93 756.15 1777.7 884.93 1845.93C965.49 1888.61 1016.95 1946.88 1042.26 2024.07C1063.15 2087.81 1062.41 2153.23 1058.49 2214.44C1057.53 2229.39 1056.04 2246.93 1054.45 2265.5C1044.1 2386.76 1026.76 2589.7 1102.36 2750.99C1201.62 2962.73 1426.54 2966.14 1524.9 2920.9L1526.95 2925.36C1496.09 2939.55 1452.96 2949.04 1405.13 2949.04Z" />
							</g>
						</g>
					</g>
				</g>
				<g id="&lt;Group&gt;" style="opacity: 0.302">
					<g id="&lt;Group&gt;">
						<g id="&lt;Group&gt;">
							<path id="&lt;Path&gt;" class="shp2" d="M1525.93 2932.95C1419.42 2981.93 1197.35 2969.23 1100.13 2761.86C1012.65 2575.21 1048.83 2336.71 1056.05 2224.08C1063.2 2112.02 1063.31 1953.03 883.77 1857.93C754.9 1789.63 567.17 1837.33 471.52 1869.71C461.72 1872.99 455.42 1859.49 464.15 1854.02C477.84 1845.4 492.29 1837.23 507.23 1829.54C498.76 1835.05 505.06 1848.37 514.77 1845.09C610.42 1812.71 798.15 1765.01 927.02 1833.27C1106.56 1928.41 1106.45 2087.4 1099.3 2199.46C1092.09 2312.09 1055.9 2550.59 1143.38 2737.2C1228.55 2918.95 1404.93 2885.93 1520.05 2858.18L1525.93 2932.95Z" />
						</g>
					</g>
				</g>
				<g id="&lt;Group&gt;">
					<g id="&lt;Group&gt;">
						<g id="&lt;Group&gt;">
							<path id="&lt;Path&gt;" class="shp2" d="M1405.85 2962.63C1372.28 2962.63 1337.9 2958.07 1305.27 2948.81C1236.75 2929.38 1143.08 2880.61 1085.93 2758.69C1008.26 2593 1025.85 2387.02 1036.37 2263.96C1037.94 2245.49 1039.43 2228.04 1040.38 2213.28C1048.88 2080.44 1034.9 1945.93 876.43 1861.97C753.66 1796.93 573.2 1842.06 476.55 1874.75C464.65 1878.78 452.11 1873.46 446.72 1862.11C441.31 1850.73 445.14 1837.6 455.82 1830.91C553.06 1769.9 677.04 1733.52 787.64 1733.52C787.95 1733.52 788.25 1733.52 788.56 1733.52C881.86 1733.69 1009.88 1758.97 1089.98 1878.45C1175.05 2005.34 1167.16 2141.23 1158.81 2285.11C1152.39 2395.68 1145.75 2510.02 1181.1 2628.44C1204.14 2705.62 1243.98 2758.13 1299.52 2784.53C1393.57 2829.22 1503.28 2784.69 1504.38 2784.23C1512.37 2780.91 1521.56 2784.7 1524.9 2792.69C1528.22 2800.69 1524.45 2809.87 1516.46 2813.21C1511.48 2815.29 1393.12 2863.62 1286.27 2813C1222.25 2782.65 1176.74 2723.58 1151.02 2637.43C1114.08 2513.72 1120.88 2396.57 1127.46 2283.29C1135.5 2144.83 1143.09 2014.06 1063.9 1895.94C947.03 1721.62 698.76 1747 532.05 1825.2C637.3 1797.19 782.97 1776.92 891.13 1834.23C1089.38 1939.26 1077.45 2125.69 1071.71 2215.29C1070.75 2230.38 1069.24 2247.99 1067.65 2266.63C1057.41 2386.56 1040.26 2587.29 1114.36 2745.36C1209.67 2948.69 1425.17 2952.19 1519.37 2908.87C1527.25 2905.25 1536.56 2908.69 1540.19 2916.57C1543.81 2924.45 1540.36 2933.77 1532.48 2937.39C1496.13 2954.11 1451.74 2962.63 1405.85 2962.63Z" />
						</g>
					</g>
				</g>
				<g id="&lt;Group&gt;" style="opacity: 0.302">
					<g id="&lt;Group&gt;">
						<g id="&lt;Group&gt;">
							<path id="&lt;Path&gt;" class="shp4" d="M2069.72 3051.87C2068.58 3070.51 2068.01 3090.42 2068.38 3110.73C2067.98 3090.42 2068.58 3070.51 2069.72 3051.87Z" />
						</g>
					</g>
					<g id="&lt;Group&gt;">
						<g id="&lt;Group&gt;">
							<path id="&lt;Path&gt;" class="shp2" d="M2065.93 3110.78C2065.93 3110.78 2065.93 3110.78 2065.93 3110.78C2065.93 3110.78 2065.93 3110.77 2065.93 3110.77C2065.56 3092.26 2066.01 3072.4 2067.27 3051.72L2072.16 3052.02C2070.94 3072.17 2070.49 3091.9 2070.84 3110.67C2070.84 3110.68 2070.84 3110.68 2070.84 3110.69C2070.84 3110.69 2070.84 3110.69 2070.84 3110.69L2065.93 3110.78Z" />
						</g>
					</g>
				</g>
				<g id="&lt;Group&gt;" style="opacity: 0.302">
					<g id="&lt;Group&gt;">
						<g id="&lt;Group&gt;">
							<path id="&lt;Path&gt;" class="shp4" d="M2069.85 3050.17C2070.75 3035.57 2072.02 3021.74 2073.43 3009.15C2072.02 3021.74 2070.79 3035.57 2069.85 3050.17Z" />
						</g>
					</g>
					<g id="&lt;Group&gt;">
						<g id="&lt;Group&gt;">
							<path id="&lt;Path&gt;" class="shp2" d="M2072.3 3050.33L2067.41 3050.02C2068.22 3036.7 2069.43 3022.86 2070.99 3008.88L2075.86 3009.42C2074.39 3022.66 2073.19 3036.42 2072.3 3050.31C2072.3 3050.31 2072.3 3050.32 2072.3 3050.32C2072.3 3050.32 2072.3 3050.33 2072.3 3050.33Z" />
						</g>
					</g>
				</g>
				<g id="&lt;Group&gt;" style="opacity: 0.302">
					<g id="&lt;Group&gt;">
						<g id="&lt;Group&gt;">
							<path id="&lt;Path&gt;" class="shp4" d="M2073.93 3004.41C2074.33 3000.9 2074.76 2997.49 2075.16 2994.22C2074.76 2997.52 2074.36 3000.9 2073.93 3004.41Z" />
						</g>
					</g>
					<g id="&lt;Group&gt;">
						<g id="&lt;Group&gt;">
							<path id="&lt;Path&gt;" class="shp2" d="M2076.36 3004.71L2071.49 3004.13C2071.78 3001.58 2072.09 2999.08 2072.39 2996.65L2072.72 2993.92L2077.6 2994.52L2076.36 3004.71Z" />
						</g>
					</g>
				</g>
				<g id="&lt;Group&gt;" style="opacity: 0.302">
					<g id="&lt;Group&gt;">
						<g id="&lt;Group&gt;">
							<path id="&lt;Path&gt;" class="shp5" d="" />
						</g>
					</g>
				</g>
				<g id="&lt;Group&gt;">
					<g id="&lt;Group&gt;">
						<g id="&lt;Group&gt;">
							<path id="&lt;Path&gt;" class="shp0" d="M2169.31 3142.51C2127.23 3149.57 2096.19 3137.52 2059.41 3124.06C2030.6 3113.5 1998.22 3102.08 1954.22 3098.35C1921.13 3095.56 1887.46 3097.06 1853.86 3099.29C1808.92 3102.32 1764.14 3106.59 1721.12 3103.57C1684.62 3101.02 1649.41 3093.13 1616.44 3074.72C1281.96 2888.05 1494.77 2519.46 1632.26 2335.93C1645.33 2318.51 1657.69 2302.77 1668.88 2288.99C1690 2262.93 1707.85 2242.19 1722.45 2226.78L1731.09 2263.13L1747.81 2333.42L1840.83 2724.54C1997.4 2637.64 2080.13 2778.66 2113.5 2861.68C2121.82 2882.32 2127.83 2900.29 2131.55 2915.57C2195.53 2846.53 2274.73 2850.41 2304.13 2906.11C2308.05 2913.56 2311.12 2921.96 2313.12 2931.23C2326.85 2994.89 2264.88 3126.49 2169.31 3142.51Z" />
						</g>
					</g>
				</g>
				<g id="&lt;Group&gt;">
					<g id="&lt;Group&gt;">
						<g id="&lt;Group&gt;">
							<path id="&lt;Path&gt;" class="shp1" d="M2169.31 3142.51C2127.23 3149.57 2095.46 3139.36 2059.41 3124.06C2020.77 3107.66 1985.71 3099.09 1954.22 3098.35C1968.44 3082.56 1982.38 3057.83 1996.05 3024.17C2016.71 2973.25 2031.43 2870.7 2113.5 2861.68C2121.82 2882.32 2127.83 2900.29 2131.55 2915.57C2195.53 2846.53 2274.73 2850.41 2304.13 2906.11C2308.05 2913.56 2311.12 2921.96 2313.12 2931.23C2326.85 2994.89 2264.88 3126.49 2169.31 3142.51Z" />
						</g>
					</g>
				</g>
				<g id="&lt;Group&gt;">
					<g id="&lt;Group&gt;">
						<g id="&lt;Group&gt;">
							<path id="&lt;Path&gt;" class="shp2" d="M1726.25 2230.38C1714.36 2248.4 1701.99 2266.07 1689.56 2283.51C1683.46 2292.35 1677.04 2300.89 1670.93 2309.69L1652.2 2335.7C1639.68 2353 1627.45 2370.49 1615.4 2388.07C1603.28 2405.61 1591.37 2423.29 1580.01 2441.29C1533.79 2512.66 1494.77 2589.34 1471.87 2670.31C1460.45 2710.7 1453.45 2752.26 1453.7 2793.58C1453.84 2834.84 1461.59 2875.8 1478.34 2912.96C1495.01 2950.19 1520.81 2982.91 1551.58 3010.31C1567.2 3023.81 1583.78 3036.31 1601.41 3047.45C1605.71 3050.37 1610.35 3052.82 1614.8 3055.53C1619.29 3058.11 1623.79 3061.09 1628.27 3063.07L1641.68 3069.69L1655.74 3074.96C1674.74 3081.32 1694.67 3085.51 1715.21 3087.27C1735.76 3088.98 1756.66 3089.18 1777.81 3088.36C1820.12 3086.65 1863.2 3081.89 1907.39 3081.22C1929.52 3081.13 1951.82 3081.72 1974.32 3084.81C1996.69 3087.97 2018.84 3093.45 2039.89 3100.54C2060.98 3107.48 2081.06 3115.8 2100.54 3121.65C2120.01 3127.37 2139.06 3130.41 2158.28 3128.05C2177.48 3126.41 2195.14 3119.48 2211.49 3108.82C2227.72 3098.13 2242 3083.85 2254.28 3067.97C2266.47 3051.96 2276.61 3034.18 2284.45 3015.55C2292.15 2996.93 2297.66 2977.22 2299.03 2958.08C2299.22 2955.7 2299.19 2953.36 2299.3 2951C2299.23 2948.69 2299.23 2946.35 2299.06 2944.1C2298.63 2939.49 2298.16 2935.55 2296.86 2930.97C2294.55 2922.08 2291.05 2913.69 2286.03 2906.58C2276.23 2892.17 2260.73 2882.79 2243.19 2880.5C2225.65 2877.97 2206.73 2882.25 2189.58 2890.63C2172.33 2899.07 2156.73 2911.66 2143.07 2926.25L2123.49 2947.17L2116.31 2919.3C2114.38 2911.83 2111.87 2903.57 2109.27 2895.75C2106.65 2887.84 2103.8 2879.98 2100.76 2872.21C2094.68 2856.67 2087.83 2841.45 2080.12 2826.77C2064.69 2797.55 2045.95 2769.82 2021.82 2749.09C2009.9 2738.64 1996.61 2730.28 1982.65 2724.25C1968.66 2718.2 1953.87 2714.93 1938.7 2713.87C1923.53 2712.76 1907.89 2714 1892.07 2717.16C1884.04 2718.22 1876.23 2720.67 1868.05 2722.46C1863.95 2723.3 1859.99 2724.71 1855.91 2725.87C1851.82 2727.03 1847.66 2728.13 1843.38 2729.12L1842.97 2729.22C1840.1 2729.88 1837.24 2728.1 1836.57 2725.23C1836.11 2723.23 1836.85 2721.22 1838.3 2719.97C1851.91 2708.34 1867.32 2698.37 1884.62 2691.74L1891.11 2689.26L1894.37 2688.02L1897.75 2687.09C1902.27 2685.88 1906.85 2684.77 1911.43 2683.68C1916.06 2682.76 1920.83 2682.37 1925.56 2681.83C1927.93 2681.64 1930.29 2681.2 1932.69 2681.23L1939.9 2681.25C1959.09 2681.42 1978.67 2685.39 1996.13 2693.57C2013.69 2701.56 2029.2 2712.79 2043.02 2725.19C2056.82 2737.69 2068.82 2751.66 2079.61 2766.24C2090.27 2780.92 2099.59 2796.34 2107.91 2812.17C2116.23 2828 2123.54 2844.25 2130.01 2860.8C2133.25 2869.07 2136.28 2877.42 2139.07 2885.87C2141.9 2894.4 2144.44 2902.63 2146.81 2911.85L2120.04 2904.91C2135.82 2888.05 2154.23 2872.99 2175.79 2862.42C2197.2 2851.99 2222.14 2845.83 2247.53 2849.4C2272.82 2852.5 2297.51 2867.27 2311.87 2888.75C2319.27 2899.3 2324.16 2911.17 2327.26 2923.12C2328.91 2928.92 2329.88 2935.71 2330.37 2941.83C2330.61 2944.95 2330.63 2948.02 2330.7 2951.1C2330.59 2954.12 2330.59 2957.19 2330.36 2960.17C2328.6 2984.11 2322.15 3006.44 2313.44 3027.63C2304.55 3048.75 2293.16 3068.73 2279.22 3087.05C2265.16 3105.24 2248.59 3121.95 2228.76 3135.04C2218.84 3141.54 2208.14 3147.1 2196.78 3151.28C2185.51 3155.47 2173.24 3158.27 2161.53 3159.28C2137.77 3162.22 2113.34 3158.24 2091.58 3151.74C2069.75 3145.14 2049.92 3136.86 2030.03 3130.35C2010.21 3123.68 1990.3 3118.8 1969.96 3115.91C1949.69 3113.11 1928.77 3112.53 1907.79 3112.62C1865.69 3113.22 1822.89 3117.93 1779.02 3119.74C1757.06 3120.59 1734.77 3120.42 1712.33 3118.54C1689.89 3116.61 1667.3 3111.98 1645.46 3104.62L1629.23 3098.52L1613.63 3090.84C1608.25 3088.38 1603.74 3085.38 1598.88 3082.6C1594.12 3079.71 1589.22 3077.09 1584.59 3073.96C1565.73 3062.05 1547.78 3048.56 1530.79 3033.84C1497.2 3003.99 1468.37 2967.55 1449.72 2925.87C1430.95 2884.28 1422.43 2838.64 1422.3 2793.74C1422.05 2748.72 1429.63 2704.37 1441.64 2661.83C1453.61 2619.21 1469.93 2578.18 1488.83 2538.62C1507.6 2498.99 1528.77 2460.64 1551.63 2423.43C1563.26 2404.94 1575.22 2386.68 1587.76 2368.82C1600.35 2351.01 1613.54 2333.65 1627.14 2316.62C1634.01 2308.16 1641.03 2299.83 1648.13 2291.57C1655.45 2283.48 1662.61 2275.28 1670.27 2267.51C1685.43 2251.81 1701.17 2236.74 1718.66 2223.18C1720.97 2221.39 1724.29 2221.81 1726.08 2224.12C1727.51 2225.95 1727.54 2228.43 1726.33 2230.27L1726.25 2230.38Z" />
						</g>
					</g>
				</g>
				<g id="&lt;Group&gt;">
					<g id="&lt;Group&gt;">
						<g id="&lt;Group&gt;">
							<path id="&lt;Path&gt;" class="shp6" d="" />
						</g>
					</g>
				</g>
				<g id="&lt;Group&gt;">
					<g id="&lt;Group&gt;">
						<g id="&lt;Group&gt;">
							<path id="&lt;Path&gt;" class="shp3" d="M2163.56 3023.44C2148.48 3046.38 2147.93 3074.55 2162.34 3086.36C2176.75 3098.16 2200.66 3089.13 2215.74 3066.18C2230.82 3043.24 2231.37 3015.07 2216.96 3003.27C2202.55 2991.46 2178.64 3000.49 2163.56 3023.44Z" />
						</g>
					</g>
				</g>
				<g id="&lt;Group&gt;">
					<g id="&lt;Group&gt;">
						<g id="&lt;Group&gt;">
							<path id="&lt;Path&gt;" class="shp3" d="M2168.5 2940.2C2159.8 2953.44 2159.48 2969.69 2167.8 2976.49C2176.11 2983.3 2189.9 2978.09 2198.6 2964.86C2207.3 2951.62 2207.61 2935.37 2199.3 2928.56C2190.99 2921.76 2177.2 2926.97 2168.5 2940.2Z" />
						</g>
					</g>
				</g>
				<g id="&lt;Group&gt;">
					<g id="&lt;Group&gt;">
						<g id="&lt;Group&gt;">
							<path id="&lt;Path&gt;" class="shp3" d="M2218.22 2943.49C2210.71 2960.3 2213.3 2978.51 2224 2984.17C2234.7 2989.83 2249.45 2980.79 2256.95 2963.98C2264.46 2947.17 2261.87 2928.96 2251.17 2923.3C2240.47 2917.64 2225.72 2926.68 2218.22 2943.49Z" />
						</g>
					</g>
				</g>
				<g id="&lt;Group&gt;">
					<g id="&lt;Group&gt;">
						<g id="&lt;Group&gt;">
							<path id="&lt;Path&gt;" class="shp3" d="M2249.86 2986.76C2243.52 2996.4 2243.3 3008.23 2249.35 3013.18C2255.4 3018.14 2265.44 3014.35 2271.77 3004.71C2278.1 2995.08 2278.33 2983.25 2272.28 2978.29C2266.23 2973.33 2256.19 2977.13 2249.86 2986.76Z" />
						</g>
					</g>
				</g>
				<g id="&lt;Group&gt;" style="opacity: 0.302">
					<g id="&lt;Group&gt;">
						<g id="&lt;Group&gt;">
							<path id="&lt;Path&gt;" class="shp4" d="M1434.56 2858.36C1433.08 2853.33 1431.75 2848.26 1430.49 2843.16C1431.72 2848.26 1433.05 2853.33 1434.56 2858.36Z" />
						</g>
					</g>
					<g id="&lt;Group&gt;">
						<g id="&lt;Group&gt;">
							<path id="&lt;Path&gt;" class="shp2" d="M1432.21 2859.07C1432.2 2859.06 1432.2 2859.06 1432.2 2859.05C1432.2 2859.05 1432.2 2859.05 1432.2 2859.05C1430.77 2854.29 1429.43 2849.28 1428.11 2843.73L1432.88 2842.57C1434.3 2848.34 1435.58 2853.14 1436.91 2857.67L1432.21 2859.07Z" />
						</g>
					</g>
				</g>
				<g id="&lt;Group&gt;">
					<g id="&lt;Group&gt;">
						<g id="&lt;Group&gt;">
							<path id="&lt;Path&gt;" class="shp0" d="M2593.94 1074.52C2617.06 1281.82 2519.09 1402.19 2368.47 1470.1L1838.29 1213.14C1841.05 1149.73 1860.66 915.64 1999.63 771.41C2161.51 603.38 2373.16 722.71 2382.69 728.5C2402.83 740.7 2566.21 826.02 2593.94 1074.52Z" />
						</g>
					</g>
				</g>
				<g id="&lt;Group&gt;">
					<g id="&lt;Group&gt;">
						<g id="&lt;Group&gt;">
							<g id="&lt;Group&gt;">
								<path id="&lt;Path&gt;" class="shp3" d="M1930.26 1244.93C1930.21 1099.78 1970.7 985.15 2051.73 901.05C2173.27 774.9 2332.19 864.49 2339.35 868.83C2354.48 878 2477.14 942.07 2497.96 1128.63C2518.78 1315.19 2408.99 1407.99 2257.07 1451.57" />
							</g>
						</g>
					</g>
					<g id="&lt;Group&gt;">
						<g id="&lt;Group&gt;">
							<g id="&lt;Group&gt;">
								<path id="&lt;Path&gt;" class="shp2" d="M2257.75 1453.93L2256.39 1449.21C2433.13 1398.51 2513.58 1290.74 2495.52 1128.9C2482.74 1014.39 2427.7 923.29 2340.55 872.38L2338.08 870.93C2336.47 869.96 2176.31 775.28 2053.5 902.75C1934.02 1026.76 1932.71 1242.76 1932.71 1244.93L1927.81 1244.93C1927.8 1242.74 1929.14 1024.77 2049.96 899.35C2175.45 769.09 2338.99 865.74 2340.62 866.73L2343.02 868.15C2431.55 919.86 2487.44 1012.27 2500.4 1128.36C2518.76 1292.93 2437.12 1402.47 2257.75 1453.93Z" />
							</g>
						</g>
					</g>
				</g>
				<g id="&lt;Group&gt;" style="opacity: 0.302">
					<g id="&lt;Group&gt;">
						<g id="&lt;Group&gt;">
							<path id="&lt;Path&gt;" class="shp2" d="M1931.53 1244.53L2244.25 1442.29C2274.37 1403.06 2289.22 1351.36 2281.66 1283.55C2265.64 1140.04 2171.27 1090.76 2159.63 1083.73C2154.37 1080.55 2043.72 1018.11 1952.51 1095.25C1938.51 1149.7 1931.51 1199.46 1931.53 1244.53Z" />
						</g>
					</g>
				</g>
				<g id="&lt;Group&gt;" style="opacity: 0.4">
					<g id="&lt;Group&gt;">
						<g id="&lt;Group&gt;">
							<g id="&lt;Group&gt;">
								<path id="&lt;Path&gt;" class="shp1" d="M2523.8 881.1C2474.16 820.07 2423.19 793.02 2412.51 786.56C2402.99 780.76 2191.33 661.44 2029.46 829.46C1910.66 952.76 1879.07 1141.75 1870.71 1233.6L1828.48 1213.14C1831.24 1149.73 1850.85 915.64 1989.82 771.41C2151.7 603.38 2363.35 722.71 2372.88 728.5C2386.49 736.73 2465.45 778.35 2523.8 881.1Z" />
							</g>
						</g>
					</g>
				</g>
				<g id="&lt;Group&gt;">
					<g id="&lt;Group&gt;">
						<g id="&lt;Group&gt;">
							<path id="&lt;Path&gt;" class="shp2" d="M2273.11 1520.31C2266.28 1520.31 2260 1515.82 2258.02 1508.94C2255.64 1500.6 2260.45 1491.9 2268.78 1489.51C2500.69 1422.98 2601.94 1287.79 2578.34 1076.24C2561.76 927.72 2490.62 809.71 2378.01 743.95C2376.61 743.13 2375.45 742.45 2374.56 741.91C2372.51 740.67 2167.65 619.63 2010.93 782.29C1855.26 943.87 1853.55 1226.55 1853.55 1229.39C1853.55 1238.06 1846.52 1245.09 1837.85 1245.09L1837.85 1245.09C1829.18 1245.09 1822.15 1238.06 1822.15 1229.39C1822.14 1217.3 1823.95 931.12 1988.32 760.5C2162.26 579.98 2388.56 713.68 2390.83 715.05C2391.61 715.53 2392.62 716.12 2393.85 716.83C2515.23 787.73 2591.83 914.13 2609.54 1072.76C2634.77 1298.86 2523.04 1449.23 2277.45 1519.7C2276 1520.11 2274.54 1520.31 2273.11 1520.31Z" />
						</g>
					</g>
				</g>
				<g id="&lt;Group&gt;">
					<g id="&lt;Group&gt;">
						<g id="&lt;Group&gt;">
							<path id="&lt;Path&gt;" class="shp2" d="M2330.34 1440.64C2324.38 1440.64 2318.68 1437.23 2316.04 1431.45C2312.45 1423.56 2315.93 1414.25 2323.81 1410.66C2445.35 1355.26 2497.21 1263.57 2482.36 1130.37C2470.07 1020.28 2417.36 932.73 2333.96 883.86C2332.83 883.2 2331.9 882.65 2331.2 882.22C2329.76 881.36 2178.14 792.46 2063.06 911.94C1969.54 1009 1950.59 1162.57 1946.78 1224.09C1946.25 1232.75 1938.82 1239.35 1930.14 1238.79C1921.48 1238.26 1914.9 1230.81 1915.44 1222.15C1919.46 1157.16 1939.7 994.72 2040.44 890.15C2172.68 752.88 2345.72 854.32 2347.45 855.36L2349.83 856.77C2442 910.78 2500.15 1006.71 2513.56 1126.89C2529.88 1273.25 2470.42 1378.34 2336.84 1439.23C2334.73 1440.19 2332.51 1440.64 2330.34 1440.64Z" />
						</g>
					</g>
				</g>
				<g id="&lt;Group&gt;">
					<g id="&lt;Group&gt;">
						<g id="&lt;Group&gt;">
							<path id="&lt;Path&gt;" class="shp0" d="M1443.14 1336.34C1333.73 1176.96 1202.84 1081.66 1050.47 1050.43C821.91 1003.6 715.02 1221.8 710.43 1231.96C700.73 1253.43 614.4 1416.27 732.23 1636.77C850.06 1857.28 1040.56 1876.35 1240.2 1809.64" />
						</g>
					</g>
				</g>
				<g id="&lt;Group&gt;">
					<g id="&lt;Group&gt;">
						<g id="&lt;Group&gt;">
							<g id="&lt;Group&gt;">
								<path id="&lt;Path&gt;" class="shp3" d="M1375.76 1401.46L1229.96 1741.54L1223.41 1756.85C1073.51 1806.95 930.48 1792.62 841.99 1627.06C753.53 1461.48 818.33 1339.24 825.6 1323.1C829.08 1315.48 909.32 1151.63 1080.92 1186.81C1156.93 1202.38 1223.43 1246.22 1273.94 1290.3C1316.31 1327.26 1350.25 1364.31 1375.76 1401.46Z" />
							</g>
						</g>
					</g>
					<g id="&lt;Group&gt;">
						<g id="&lt;Group&gt;">
							<g id="&lt;Group&gt;">
								<path id="&lt;Compound Path&gt;" fill-rule="evenodd" class="shp2" d="M1083.66 1784.63C977.18 1784.63 895.49 1732.35 839.82 1628.21C784.8 1525.23 778.54 1417.42 822.17 1324.65L823.36 1322.09C824.17 1320.33 904.96 1148.23 1081.42 1184.4C1146.38 1197.71 1211.69 1232.72 1275.55 1288.45C1338.62 1343.45 1377.39 1399.51 1377.78 1400.07L1378.55 1401.19L1225.23 1758.83L1224.19 1759.18C1173.4 1776.15 1126.51 1784.63 1083.66 1784.63ZM1033.77 1184.33C893.45 1184.33 828.54 1322.57 827.83 1324.11L826.61 1326.73C783.65 1418.07 789.88 1524.32 844.15 1625.9C920.76 1769.23 1047.75 1812.63 1221.59 1754.87L1372.96 1401.75C1367.24 1393.67 1330.04 1342.49 1272.32 1292.15C1209.12 1236.98 1144.56 1202.35 1080.43 1189.21C1064.04 1185.85 1048.49 1184.33 1033.77 1184.33Z" />
							</g>
						</g>
					</g>
				</g>
				<g id="&lt;Group&gt;" style="opacity: 0.302">
					<g id="&lt;Group&gt;">
						<g id="&lt;Group&gt;">
							<path id="&lt;Path&gt;" class="shp2" d="M1375.76 1401.46L1229.96 1741.54C1182.93 1726.26 1141.41 1692.05 1109.26 1631.88C1041.2 1504.52 1091.08 1410.46 1096.69 1398.08C1099.23 1392.49 1155.08 1278.37 1273.94 1290.3C1316.31 1327.26 1350.25 1364.31 1375.76 1401.46Z" />
						</g>
					</g>
				</g>
				<g id="&lt;Group&gt;" style="opacity: 0.4">
					<g id="&lt;Group&gt;">
						<g id="&lt;Group&gt;">
							<g id="&lt;Group&gt;">
								<path id="&lt;Path&gt;" class="shp1" d="M1411.87 1343.88L1427.88 1315.76C1382.23 1256.8 1238.07 1088.88 1050.47 1050.43C821.91 1003.6 715.02 1221.8 710.43 1231.96C705.47 1242.94 680.49 1290.87 673 1364.56C672.04 1382.78 672.18 1402.33 673.96 1423.11C680.32 1344.7 707.02 1293.55 712.16 1282.17C716.73 1272 823.63 1053.81 1052.19 1100.65C1219.93 1135.01 1352.98 1272.9 1411.87 1343.88Z" />
							</g>
						</g>
					</g>
				</g>
				<g id="&lt;Group&gt;">
					<g id="&lt;Group&gt;">
						<g id="&lt;Group&gt;">
							<path id="&lt;Path&gt;" class="shp2" d="M1053.48 1859.23C907.26 1859.23 794.81 1787.19 718.39 1644.19C643.17 1503.42 634.73 1355.86 694.65 1228.69C695.25 1227.41 695.76 1226.35 696.13 1225.51C697.2 1223.13 807.45 984.62 1053.62 1035.07C1254.02 1076.12 1404.7 1258.75 1446.11 1313.75C1451.33 1320.67 1449.94 1330.52 1443.01 1335.73C1436.1 1340.95 1426.25 1339.57 1421.03 1332.63C1381.29 1279.86 1236.92 1104.67 1047.32 1065.83C825.48 1020.35 725.74 1236.22 724.76 1238.41C724.32 1239.39 723.75 1240.61 723.05 1242.08C667.48 1360.04 675.65 1497.59 746.09 1629.39C831.77 1789.72 960.39 1851.99 1139.29 1819.74C1147.81 1818.21 1155.99 1823.88 1157.52 1832.41C1159.06 1840.94 1153.39 1849.11 1144.85 1850.64C1113.08 1856.37 1082.59 1859.23 1053.48 1859.23Z" />
						</g>
					</g>
				</g>
				<g id="&lt;Group&gt;">
					<g id="&lt;Group&gt;">
						<g id="&lt;Group&gt;">
							<path id="&lt;Path&gt;" class="shp2" d="M1083.03 1798.03C971.83 1798.03 886.29 1743.23 828.14 1634.46C771.1 1527.69 764.72 1415.66 810.19 1319.01L811.29 1316.65C812.16 1314.73 897.44 1133.19 1084.08 1171.43C1226.32 1200.57 1334.98 1323.01 1375.09 1374.3C1380.43 1381.13 1379.23 1391 1372.4 1396.34C1365.57 1401.68 1355.7 1400.48 1350.36 1393.65C1312.38 1345.09 1209.81 1229.24 1077.77 1202.19C915.34 1168.89 840.62 1328.01 839.88 1329.62C839.58 1330.29 839.14 1331.23 838.6 1332.37C797.46 1419.83 803.58 1521.86 855.84 1619.66C919.02 1737.85 1013.66 1784.06 1145.22 1760.91C1153.75 1759.4 1161.9 1765.11 1163.4 1773.65C1164.9 1782.19 1159.2 1790.33 1150.66 1791.83C1127.17 1795.97 1104.61 1798.03 1083.03 1798.03Z" />
						</g>
					</g>
				</g>
				<g id="&lt;Group&gt;" style="opacity: 0.302">
					<g id="&lt;Group&gt;">
						<g id="&lt;Group&gt;">
							<path id="&lt;Path&gt;" class="shp2" d="M2267.67 2177.09C2170.72 2234.51 2056.58 2276.63 1942.29 2303.24C1878.63 2318.07 1812.96 2328.55 1747.81 2333.42C1724.77 2335.19 1701.77 2336.21 1678.97 2336.44C1663.31 2336.68 1647.72 2336.48 1632.26 2335.93C1645.33 2318.51 1657.69 2302.77 1668.88 2288.99C1690 2262.93 1707.85 2242.19 1722.45 2226.78L1731.09 2263.13L2214.88 2062.09C2234.85 2101.46 2252.4 2139.8 2267.67 2177.09Z" />
						</g>
					</g>
				</g>
				<g id="&lt;Group&gt;">
					<g id="&lt;Group&gt;">
						<g id="&lt;Group&gt;">
							<path id="&lt;Path&gt;" class="shp0" d="M2504.16 1583.45C2604.21 1905.78 2292.97 2133.37 1970.64 2233.42C1648.32 2333.46 1262.9 2322.09 1162.86 1999.77C1062.82 1677.44 1330.2 1308.56 1652.53 1208.51C1974.85 1108.47 2404.12 1261.12 2504.16 1583.45Z" />
						</g>
					</g>
				</g>
				<g id="&lt;Group&gt;">
					<g id="&lt;Group&gt;">
						<g id="&lt;Group&gt;">
							<path id="&lt;Path&gt;" class="shp2" d="M2083.82 1748.64C2078.81 1733.91 2076.88 1718.99 2076.66 1703.5C2076.68 1688.1 2078.61 1672.19 2084.33 1656.79C2089.93 1641.47 2099.21 1626.48 2112.28 1615.11C2125.1 1603.54 2141.27 1595.96 2157.01 1592.12C2172.81 1587.96 2190.14 1586.57 2207.03 1590.05C2223.9 1593.45 2239.63 1601.74 2251.89 1612.85C2276.42 1635.38 2288.81 1666.29 2290.57 1696.37C2290.76 1699.55 2288.32 1702.29 2285.14 1702.47C2282.54 1702.62 2280.25 1701.04 2279.38 1698.73L2279.35 1698.62C2269.65 1672.57 2254.44 1649.03 2234.07 1634.94C2223.99 1627.91 2212.89 1623.41 2201.34 1621.91C2189.79 1620.32 2177.79 1621.72 2165.91 1625.07C2141.78 1631.35 2123.55 1646.14 2112.48 1668.7C2101.22 1691.02 2096.66 1718.96 2095.1 1746.68L2095.07 1747.1C2094.89 1750.3 2092.16 1752.74 2088.97 1752.56C2086.55 1752.42 2084.55 1750.81 2083.82 1748.64Z" />
						</g>
					</g>
				</g>
				<g id="&lt;Group&gt;" style="opacity: 0.302">
					<g id="&lt;Group&gt;">
						<g id="&lt;Group&gt;">
							<path id="&lt;Path&gt;" class="shp2" d="M2519.53 1755.59C2486.32 1987.12 2232.15 2152.25 1970.63 2233.41C1648.31 2333.46 1262.92 2322.08 1162.88 1999.76C1134.42 1908.08 1135.68 1812.58 1159.5 1720.62C1146.55 1797.27 1149.81 1875.46 1173.28 1951.09C1273.32 2273.41 1658.71 2284.79 1981.07 2184.74C2223.86 2109.39 2460.38 1961.65 2519.53 1755.59Z" />
						</g>
					</g>
				</g>
				<g id="&lt;Group&gt;" style="opacity: 0.4">
					<g id="&lt;Group&gt;">
						<g id="&lt;Group&gt;">
							<g id="&lt;Group&gt;">
								<path id="&lt;Path&gt;" class="shp1" d="M2504.16 1583.46C2507.18 1593.17 2509.83 1602.79 2512.09 1612.32C2396.18 1309.7 1983.02 1169.05 1670.4 1266.08C1357.77 1363.11 1096.87 1712.99 1172.67 2028.05C1169.14 2018.92 1165.88 2009.49 1162.87 1999.78C1062.82 1677.45 1330.19 1308.55 1652.53 1208.5C1974.86 1108.46 2404.12 1261.13 2504.16 1583.46Z" />
							</g>
						</g>
					</g>
				</g>
				<g id="&lt;Group&gt;">
					<g id="&lt;Group&gt;">
						<g id="&lt;Group&gt;">
							<path id="&lt;Path&gt;" class="shp2" d="M1157.76 1835.89C1156.32 1874.31 1159.3 1912.82 1166.96 1950.35C1170.82 1969.1 1175.75 1987.67 1182.12 2005.7C1188.15 2023.85 1195.68 2041.41 1204.24 2058.38C1221.31 2092.34 1243.56 2123.53 1270.46 2150.19C1283.74 2163.68 1298.48 2175.7 1313.86 2186.8C1329.21 2197.96 1345.59 2207.75 1362.59 2216.4C1430.72 2251.11 1507.9 2267.49 1585.36 2272.06C1604.76 2273.34 1624.26 2273.51 1643.74 2273.46C1663.28 2273.08 1682.71 2272.43 1702.12 2270.96C1741.22 2267.8 1780.34 2263.93 1820 2262.31L1820.03 2262.31C1825.03 2262.11 1829.26 2266 1829.46 2271C1829.63 2275.26 1826.83 2278.95 1822.91 2280.08C1784.26 2291.21 1744.62 2297.29 1704.68 2301C1664.35 2304.67 1624.09 2305.33 1583.63 2303.32C1563.44 2302.23 1543.23 2300.58 1523.12 2297.78C1513.04 2296.6 1503.04 2294.74 1493 2293.15C1483.02 2291.13 1473 2289.39 1463.1 2286.93C1443.22 2282.43 1423.55 2276.72 1404.24 2269.88C1384.9 2263.13 1365.98 2255 1347.66 2245.58C1329.3 2236.27 1311.51 2225.65 1294.75 2213.52C1277.98 2201.45 1261.86 2188.3 1247.27 2173.54C1217.77 2144.36 1193.32 2110.16 1174.76 2073.26C1138.12 1999.23 1122.1 1916.2 1126.39 1834.5C1126.83 1825.84 1134.21 1819.18 1142.87 1819.62C1151.44 1820.06 1158.06 1827.33 1157.76 1835.89Z" />
						</g>
					</g>
				</g>
				<g id="&lt;Group&gt;">
					<g id="&lt;Group&gt;">
						<g id="&lt;Group&gt;">
							<path id="&lt;Path&gt;" class="shp2" d="M2228.58 2136.66C2223.21 2136.66 2217.98 2133.9 2215.05 2128.94C2210.64 2121.48 2213.12 2111.85 2220.58 2107.44C2356.21 2027.29 2571.46 1853.24 2489.17 1588.12C2473.44 1537.45 2448.77 1489.58 2415.84 1445.82L2378.26 1401.33C2283.08 1300.55 2144.73 1230.7 1988.62 1204.61L1896.72 1194.72C1812.4 1190.64 1731.84 1200.32 1657.18 1223.5C1582.39 1246.71 1510.36 1284.45 1443.08 1335.68C1436.19 1340.93 1426.34 1339.6 1421.08 1332.7C1415.83 1325.8 1417.16 1315.95 1424.06 1310.7C1494.27 1257.24 1569.57 1217.81 1647.87 1193.51C1726.17 1169.2 1810.53 1159.06 1898.71 1163.38L1899.62 1163.45L1993.33 1173.56C2156.51 1200.74 2301.43 1274.09 2401.39 1380.09L2401.96 1380.74L2440.65 1426.57C2475.9 1473.32 2502.31 1524.54 2519.16 1578.81C2584.89 1790.6 2484.53 1987.93 2236.56 2134.47C2234.05 2135.95 2231.3 2136.66 2228.58 2136.66Z" />
						</g>
					</g>
				</g>
				<g id="&lt;Group&gt;">
					<g id="&lt;Group&gt;">
						<g id="&lt;Group&gt;">
							<path id="&lt;Path&gt;" class="shp2" d="M1147.96 1792.07C1147.16 1792.07 1146.35 1792.01 1145.53 1791.88C1136.96 1790.55 1131.09 1782.53 1132.43 1773.96C1154.81 1629.98 1232.72 1487.47 1351.83 1372.67C1358.07 1366.65 1368.01 1366.84 1374.03 1373.08C1380.04 1379.32 1379.86 1389.26 1373.62 1395.28C1259.42 1505.34 1184.78 1641.54 1163.45 1778.78C1162.25 1786.53 1155.57 1792.07 1147.96 1792.07Z" />
						</g>
					</g>
				</g>
				<g id="&lt;Group&gt;">
					<g id="&lt;Group&gt;">
						<g id="&lt;Group&gt;">
							<g id="&lt;Group&gt;">
								<path id="&lt;Path&gt;" class="shp1" d="M2173.99 1925.02C2198.05 2018.72 2104.56 2072.76 2023.83 2093.49C1943.1 2114.21 1835.15 2111.88 1811.09 2018.19C1787.04 1924.49 1883.28 1818.82 1948.99 1801.95C2014.69 1785.09 2149.94 1831.33 2173.99 1925.02Z" />
							</g>
						</g>
					</g>
					<g id="&lt;Group&gt;">
						<g id="&lt;Group&gt;">
							<g id="&lt;Group&gt;">
								<g id="&lt;Group&gt;">
									<path id="&lt;Path&gt;" class="shp2" d="M2049.76 1806.61C2057.26 1830.77 2026.76 1874.13 1977.31 1889.48C1927.85 1904.83 1878.16 1886.36 1870.67 1862.2C1863.17 1838.05 1900.7 1817.35 1950.16 1802C1999.61 1786.65 2042.27 1782.46 2049.76 1806.61Z" />
								</g>
							</g>
						</g>
						<g id="&lt;Group&gt;" style="opacity: 0.302">
							<g id="&lt;Group&gt;">
								<g id="&lt;Group&gt;">
									<g id="&lt;Group&gt;">
										<path id="&lt;Path&gt;" class="shp1" d="M1996.65 1812.9C1998.84 1819.94 1989.46 1832.72 1974.45 1837.38C1959.44 1842.04 1944.48 1836.81 1942.3 1829.77C1940.11 1822.73 1951.54 1816.55 1966.55 1811.9C1981.56 1807.24 1994.47 1805.86 1996.65 1812.9Z" />
									</g>
								</g>
							</g>
							<g id="&lt;Group&gt;">
								<g id="&lt;Group&gt;">
									<g id="&lt;Group&gt;">
										<path id="&lt;Compound Path&gt;" fill-rule="evenodd" class="shp2" d="M1962.9 1841.59C1951.41 1841.59 1941.88 1836.7 1939.95 1830.5C1937.53 1822.68 1946.23 1815.64 1965.82 1809.55C1985.41 1803.47 1996.56 1804.36 1999 1812.17C2001.58 1820.5 1991.53 1834.64 1975.18 1839.72C1971.01 1841.02 1966.84 1841.59 1962.9 1841.59ZM1986.72 1810.45C1982.04 1810.45 1975.4 1811.72 1967.27 1814.24C1951.72 1819.07 1943.26 1824.6 1944.64 1829.04C1946.31 1834.43 1959.57 1839.43 1973.73 1835.03C1987.9 1830.64 1995.98 1819.02 1994.31 1813.63C1993.65 1811.51 1991 1810.45 1986.72 1810.45Z" />
									</g>
								</g>
							</g>
						</g>
						<g id="&lt;Group&gt;">
							<g id="&lt;Group&gt;">
								<g id="&lt;Group&gt;">
									<path id="&lt;Path&gt;" class="shp2" d="M2072.5 1876.33C2076.95 1887.53 2079.34 1900.58 2076.04 1914.51C2074.29 1921.38 2070.8 1928.25 2065.84 1933.96C2060.89 1939.69 2054.5 1943.97 2048.04 1946.94C2041.65 1949.82 2034.68 1951.83 2027.07 1952.37C2019.48 1952.98 2011.4 1951.56 2004.21 1948.61C1996.96 1945.66 1990.75 1941.14 1985.6 1936.13C1983 1933.61 1980.72 1930.9 1978.58 1928.11C1977.54 1926.69 1976.5 1925.29 1975.56 1923.8L1974.16 1921.55L1973.47 1920.4C1973.45 1920.36 1973.3 1920.1 1973.37 1920.23C1974.36 1921.97 1975.82 1923.71 1977.85 1925.15C1981.96 1928.06 1987.13 1928.56 1991.18 1927.25C1995.26 1926.04 1999.25 1922.69 2000.99 1917.97C2001.85 1915.63 2002.07 1913.37 2001.89 1911.38C2001.88 1911.23 2001.9 1911.53 2001.91 1911.58L2002 1912.91L2002.12 1915.56C2002.2 1917.32 2002.15 1919.07 2002.11 1920.83C2001.95 1924.34 2001.62 1927.87 2000.92 1931.42C1999.54 1938.49 1997.02 1945.76 1992.72 1952.34C1988.48 1958.89 1982.62 1964.7 1976 1968.55C1969.4 1972.47 1962.5 1974.8 1955.56 1976.09C1948.51 1977.35 1940.76 1977.48 1933.34 1975.57C1925.93 1973.7 1919.06 1970.01 1913.64 1965.31C1902.84 1955.65 1897.3 1943.46 1894.52 1931.63C1893.53 1927.43 1896.13 1923.23 1900.33 1922.24C1903.67 1921.46 1907.02 1922.94 1908.74 1925.7L1908.93 1926.01C1914.39 1934.75 1920.68 1942.5 1927.82 1946.37C1934.84 1950.39 1941.73 1950.59 1949.36 1948.37C1953.27 1947.1 1956.85 1945.29 1959.72 1943.31C1962.58 1941.25 1964.68 1938.83 1966.34 1935.93C1967.98 1933.05 1969.2 1929.6 1969.79 1925.7C1970.14 1923.78 1970.33 1921.75 1970.41 1919.69C1970.42 1918.66 1970.47 1917.62 1970.41 1916.59L1970.33 1915.06L1970.27 1914.31L1970.25 1913.99C1970.07 1911.83 1970.3 1909.38 1971.23 1906.89C1973.08 1901.83 1977.35 1898.23 1981.77 1896.92C1986.15 1895.51 1991.71 1896.05 1996.1 1899.17C1998.27 1900.7 1999.85 1902.59 2000.93 1904.47L2001.08 1904.75L2001.46 1905.4L2002.25 1906.72C2002.77 1907.6 2003.39 1908.44 2003.97 1909.29C2005.19 1910.95 2006.49 1912.54 2007.86 1913.94C2010.53 1916.85 2013.49 1919.05 2016.49 1920.53C2019.51 1922.03 2022.64 1922.88 2026.21 1923C2029.75 1923.04 2033.78 1922.53 2037.78 1921.38C2045.43 1918.93 2051.22 1914.78 2054.85 1907.34C2058.66 1899.95 2059.51 1889.87 2059.1 1879.46L2059.09 1879.16C2058.94 1875.32 2061.93 1872.09 2065.77 1871.94C2068.79 1871.82 2071.44 1873.67 2072.5 1876.33Z" />
								</g>
							</g>
						</g>
						<g id="&lt;Group&gt;">
							<g id="&lt;Group&gt;">
								<g id="&lt;Group&gt;">
									<path id="&lt;Path&gt;" class="shp2" d="M1973.76 1864.49L2005.29 1910.91C2011.24 1919.66 2008.96 1931.57 2000.21 1937.51C1991.46 1943.45 1979.55 1941.18 1973.61 1932.43C1971.38 1929.16 1970.31 1925.45 1970.3 1921.77L1970.01 1865.65C1970 1864.52 1970.92 1863.6 1972.05 1863.59C1972.75 1863.59 1973.38 1863.95 1973.76 1864.49Z" />
								</g>
							</g>
						</g>
					</g>
				</g>
				<g id="&lt;Group&gt;">
					<g id="&lt;Group&gt;">
						<g id="&lt;Group&gt;">
							<path id="&lt;Path&gt;" class="shp2" d="M2142.11 2925.84C2138.98 2931.46 2134.28 2937.18 2129.98 2942.59C2125.58 2948.06 2120.73 2953.27 2116.14 2958.76C2111.49 2964.23 2107.12 2969.9 2102.74 2975.8C2098.28 2981.7 2094.38 2987.94 2090 2994.63L2089.94 2994.73C2089.27 2995.75 2087.89 2996.04 2086.87 2995.37C2086.31 2995 2085.96 2994.42 2085.88 2993.8C2084.81 2985.7 2085.14 2977.34 2086.49 2969.22C2087.95 2961.15 2090.09 2953.08 2093.16 2945.49C2096.18 2937.87 2099.65 2930.38 2104.22 2923.63C2106.53 2920.28 2108.93 2916.99 2111.69 2913.96C2114.45 2910.84 2117.2 2908.16 2121 2905.32C2127.57 2900.4 2136.88 2901.73 2141.8 2908.3C2145.42 2913.13 2145.65 2919.46 2142.9 2924.42L2142.11 2925.84Z" />
						</g>
					</g>
				</g>
				<g id="&lt;Group&gt;">
					<g id="&lt;Group&gt;">
						<g id="&lt;Group&gt;">
							<path id="&lt;Path&gt;" class="shp7" d="M3538.36 2636.9L3031.85 3000.93C3029.03 3002.98 3025.14 3000.54 3025.69 2997.13L3271.15 1477.2C3271.82 1472.96 3277.91 1472.76 3278.85 1476.96L3281.67 1489.4C3281.67 1489.4 3281.67 1489.42 3281.67 1489.44L3537.03 2620.22L3539.89 2632.85C3540.25 2634.38 3539.66 2635.99 3538.36 2636.9Z" />
						</g>
					</g>
				</g>
				<g id="&lt;Group&gt;" style="opacity: 0.2">
					<g id="&lt;Group&gt;">
						<g id="&lt;Group&gt;">
							<path id="&lt;Path&gt;" class="shp2" d="M3538.36 2636.9L3031.85 3000.93C3029.03 3002.98 3025.14 3000.54 3025.69 2997.13L3271.15 1477.2C3271.82 1472.96 3277.91 1472.76 3278.85 1476.96L3281.67 1489.4C3281.67 1489.4 3281.67 1489.42 3281.67 1489.44C3245.09 1701.9 3106.07 2566.37 3244.03 2685.68C3355.58 2782.2 3478.92 2615.57 3537.03 2620.22L3539.89 2632.85C3540.25 2634.38 3539.66 2635.99 3538.36 2636.9Z" />
						</g>
					</g>
				</g>
				<g id="&lt;Group&gt;">
					<g id="&lt;Group&gt;">
						<g id="&lt;Group&gt;">
							<path id="&lt;Path&gt;" class="shp7" d="M3273.2 1464.34L3025.62 2997.7C3024.87 3002.37 3020.2 3005.31 3015.69 3004.02L2073.19 2734.06C2069.31 2732.96 2066.87 2729.03 2067.66 2725.07L2169.58 2190.97C2171.32 2181.83 2178.26 2174.51 2187.34 2172.48C2259.67 2156.25 2313.71 2091.65 2313.71 2014.42C2313.71 1958.92 2285.75 1909.9 2243.17 1880.72C2235.45 1875.44 2231.58 1866.1 2233.34 1856.91L2350.33 1243.96C2351.16 1239.56 2355.51 1236.78 2359.87 1237.8L2762.51 1334.37C2789.88 1340.94 2809.04 1365.98 2807.58 1394.1C2807.32 1398.97 2807.33 1403.92 2807.61 1408.93C2811.4 1477.23 2867.09 1532.57 2935.41 1535.96C2992.91 1538.81 3043.01 1505.67 3065.13 1457.08C3076.98 1431.05 3105.07 1416.54 3132.88 1423.22L3267.31 1455.47C3271.28 1456.45 3273.87 1460.3 3273.2 1464.34Z" />
						</g>
					</g>
					<g id="&lt;Group&gt;">
						<g id="&lt;Group&gt;">
							<path id="&lt;Compound Path&gt;" fill-rule="evenodd" class="shp2" d="M3017.85 3006.77C3016.89 3006.77 3015.94 3006.64 3015.01 3006.37L2072.52 2736.42C2067.42 2734.98 2064.23 2729.78 2065.25 2724.6L2167.17 2190.51C2169.11 2180.34 2176.82 2172.32 2186.8 2170.09C2258.92 2153.91 2311.26 2088.45 2311.26 2014.42C2311.26 1961.78 2285.28 1912.55 2241.78 1882.75C2233.25 1876.9 2228.99 1866.58 2230.93 1856.45L2347.93 1243.5C2348.44 1240.73 2350.03 1238.36 2352.4 1236.81C2354.75 1235.28 2357.67 1234.76 2360.43 1235.41L2763.08 1331.99C2791.8 1338.87 2811.55 1365.05 2810.03 1394.22C2809.78 1399.04 2809.79 1403.94 2810.06 1408.79C2813.76 1475.42 2868.87 1530.2 2935.54 1533.51C2990.27 1536.23 3040.24 1505.83 3062.9 1456.06C3075.29 1428.81 3104.97 1413.99 3133.45 1420.83L3267.89 1453.09C3273.1 1454.38 3276.48 1459.49 3275.63 1464.74L3028.04 2998.09C3027.57 3000.99 3025.88 3003.57 3023.39 3005.16C3021.72 3006.22 3019.79 3006.77 3017.85 3006.77ZM2358.05 1240.04C2357 1240.04 2355.98 1240.34 2355.08 1240.92C2353.84 1241.73 2353.01 1242.97 2352.74 1244.41L2235.74 1857.37C2234.18 1865.59 2237.63 1873.96 2244.55 1878.7C2289.39 1909.42 2316.16 1960.16 2316.16 2014.42C2316.16 2090.72 2262.21 2158.2 2187.87 2174.87C2179.8 2176.68 2173.56 2183.18 2171.99 2191.42L2070.07 2725.53C2069.53 2728.24 2071.2 2730.95 2073.86 2731.7L3016.36 3001.66C3017.85 3002.08 3019.45 3001.85 3020.76 3001.02C3022.08 3000.18 3022.94 2998.86 3023.19 2997.31L3270.78 1463.95C3271.24 1461.2 3269.45 1458.53 3266.72 1457.85L3132.31 1425.6C3106.09 1419.32 3078.79 1432.98 3067.36 1458.09C3043.87 1509.7 2992.07 1541.22 2935.29 1538.41C2866.15 1534.98 2808.99 1478.16 2805.16 1409.07C2804.88 1404.04 2804.87 1398.96 2805.13 1393.97C2806.52 1367.16 2788.36 1343.1 2761.93 1336.76L2359.3 1240.18C2358.88 1240.08 2358.46 1240.04 2358.05 1240.04Z" />
						</g>
					</g>
				</g>
				<g id="&lt;Group&gt;" style="opacity: 0.6">
					<g id="&lt;Group&gt;">
						<g id="&lt;Group&gt;">
							<g id="&lt;Group&gt;">
								<path id="&lt;Path&gt;" class="shp1" d="M2307.23 1968.91C2329.09 1996.54 2342.12 2031.44 2342.12 2069.35C2342.12 2146.59 2288.08 2211.2 2215.74 2227.41C2206.67 2229.45 2199.73 2236.75 2198 2245.89L2103.17 2742.67L2073.19 2734.08C2069.3 2732.98 2066.87 2729.05 2067.65 2725.09L2169.58 2190.98C2171.31 2181.84 2178.26 2174.5 2187.32 2172.46C2259.66 2156.25 2313.71 2091.64 2313.71 2014.44C2313.71 1998.62 2311.43 1983.36 2307.23 1968.91Z" />
							</g>
						</g>
					</g>
				</g>
				<g id="&lt;Group&gt;" style="opacity: 0.6">
					<g id="&lt;Group&gt;">
						<g id="&lt;Group&gt;">
							<g id="&lt;Group&gt;">
								<path id="&lt;Path&gt;" class="shp1" d="M2807.58 1394.11C2807.54 1394.77 2807.5 1395.4 2807.5 1396.07C2802.44 1393.05 2796.87 1390.73 2790.9 1389.32L2388.28 1292.72C2383.92 1291.7 2379.57 1294.49 2378.74 1298.89L2264.37 1898.03C2257.82 1891.67 2250.75 1885.9 2243.18 1880.72C2235.44 1875.42 2231.6 1866.12 2233.32 1856.89L2350.33 1243.98C2351.15 1239.58 2355.51 1236.79 2359.86 1237.81L2762.52 1334.37C2789.88 1340.92 2809.03 1365.96 2807.58 1394.11Z" />
							</g>
						</g>
					</g>
				</g>
				<g id="&lt;Group&gt;" style="opacity: 0.6">
					<g id="&lt;Group&gt;">
						<g id="&lt;Group&gt;">
							<g id="&lt;Group&gt;">
								<path id="&lt;Path&gt;" class="shp1" d="M3273.2 1464.36L3266.88 1503.49L3161.3 1478.14C3133.47 1471.47 3105.4 1485.99 3093.55 1512.01C3071.41 1560.6 3021.33 1593.73 2963.83 1590.9C2904.02 1587.92 2853.86 1545.1 2839.77 1488.66C2863.2 1516.05 2897.34 1534.07 2935.42 1535.95C2992.92 1538.82 3043 1505.65 3065.14 1457.06C3076.99 1431.04 3105.05 1416.56 3132.88 1423.23L3267.31 1455.49C3271.27 1456.47 3273.86 1460.32 3273.2 1464.36Z" />
							</g>
						</g>
					</g>
				</g>
				<g id="&lt;Group&gt;" style="opacity: 0.302">
					<g id="&lt;Group&gt;">
						<g id="&lt;Group&gt;">
							<g id="&lt;Group&gt;">
								<path id="&lt;Path&gt;" class="shp1" d="M2264.37 1898.03C2284.27 1917.3 2299.22 1941.59 2307.23 1968.91C2297.1 1956.12 2285.09 1944.89 2271.59 1935.67C2263.86 1930.37 2259.97 1921.03 2261.74 1911.84L2264.37 1898.03Z" />
							</g>
						</g>
					</g>
					<g id="&lt;Group&gt;">
						<g id="&lt;Group&gt;">
							<g id="&lt;Group&gt;">
								<path id="&lt;Compound Path&gt;" fill-rule="evenodd" class="shp2" d="M2313.13 1980.32L2305.31 1970.43C2295.29 1957.77 2283.48 1946.76 2270.21 1937.7C2261.66 1931.83 2257.39 1921.51 2259.33 1911.38L2262.81 1893.1L2266.08 1896.26C2286.56 1916.1 2301.6 1940.98 2309.59 1968.22L2313.13 1980.32ZM2265.91 1903.03L2264.15 1912.3C2262.57 1920.51 2266.04 1928.89 2272.98 1933.65C2283.15 1940.6 2292.5 1948.66 2300.87 1957.72C2293.11 1937.37 2281.2 1918.71 2265.91 1903.03Z" />
							</g>
						</g>
					</g>
				</g>
				<g id="&lt;Group&gt;" style="opacity: 0.302">
					<g id="&lt;Group&gt;">
						<g id="&lt;Group&gt;">
							<g id="&lt;Group&gt;">
								<path id="&lt;Path&gt;" class="shp1" d="M2839.77 1488.66C2821.16 1466.87 2809.31 1439.2 2807.62 1408.94C2807.38 1404.59 2807.31 1400.31 2807.5 1396.07C2825.67 1406.94 2837.14 1427.04 2836 1449.02C2835.72 1453.92 2835.72 1458.87 2836 1463.85C2836.47 1472.33 2837.76 1480.65 2839.77 1488.66Z" />
							</g>
						</g>
					</g>
					<g id="&lt;Group&gt;">
						<g id="&lt;Group&gt;">
							<g id="&lt;Group&gt;">
								<path id="&lt;Compound Path&gt;" fill-rule="evenodd" class="shp2" d="M2844.68 1498.19L2837.9 1490.25C2818.16 1467.13 2806.84 1439.07 2805.17 1409.08C2804.91 1404.23 2804.87 1399.93 2805.05 1395.95L2805.24 1391.86L2808.76 1393.96C2828.23 1405.61 2839.6 1426.75 2838.45 1449.14C2838.18 1453.95 2838.18 1458.85 2838.45 1463.72C2838.9 1471.87 2840.15 1480.06 2842.14 1488.06L2844.68 1498.19ZM2809.84 1400.52C2809.83 1403.1 2809.91 1405.84 2810.07 1408.81C2811.49 1434.3 2820.15 1458.36 2835.23 1478.98C2834.39 1474 2833.83 1468.99 2833.55 1463.99C2833.27 1458.93 2833.27 1453.85 2833.55 1448.88C2834.54 1429.74 2825.54 1411.57 2809.84 1400.52Z" />
							</g>
						</g>
					</g>
				</g>
				<g id="&lt;Group&gt;" style="opacity: 0.2">
					<g id="&lt;Group&gt;">
						<g id="&lt;Group&gt;">
							<path id="&lt;Path&gt;" class="shp2" d="M3273.2 1464.36L3025.61 2997.72C3024.87 3002.39 3020.19 3005.33 3015.68 3004.03L2073.19 2734.08C2069.3 2732.98 2066.87 2729.05 2067.65 2725.09L2078.68 2667.39C2067.73 2667.79 2056.86 2667.67 2046.1 2667.12C1967.32 2663.04 1886.94 2625.29 1804.96 2553.88L1905.98 2390.69C1966.74 2415.75 2033.45 2427.46 2106.12 2425.81C2127.23 2425.34 2149.06 2423.34 2171 2419.3C2340.47 2387.9 2345.89 2545.88 2228.73 2622.41C2215.39 2631.13 2201.65 2638.39 2187.68 2644.31C2333.67 2694.6 2499.49 2669.12 2685.14 2567.87C2901.73 2449.75 3082.93 2075.87 3228.73 1446.23L3267.31 1455.49C3271.27 1456.47 3273.86 1460.32 3273.2 1464.36Z" />
						</g>
					</g>
				</g>
				<g id="&lt;Group&gt;">
					<g id="&lt;Group&gt;">
						<g id="&lt;Group&gt;">
							<path id="&lt;Compound Path&gt;" fill-rule="evenodd" class="shp2" d="M3017.85 3020.02C3015.67 3020.02 3013.49 3019.72 3011.35 3019.11L2068.87 2749.15C2057.22 2745.86 2049.9 2733.93 2052.26 2722.02L2154.16 2188.02C2157.09 2172.67 2168.76 2160.55 2183.9 2157.16C2250.02 2142.33 2298.01 2082.3 2298.01 2014.42C2298.01 1966.15 2274.19 1921.01 2234.29 1893.68C2221.42 1884.86 2215 1869.27 2217.92 1853.97L2334.91 1241.01C2336.08 1234.79 2339.82 1229.2 2345.17 1225.72C2350.54 1222.21 2357.2 1221.05 2363.45 1222.51L2766.17 1319.1C2801.1 1327.48 2825.11 1359.37 2823.26 1394.91C2823.03 1399.26 2823.04 1403.68 2823.28 1408.06C2826.61 1468.01 2876.21 1517.3 2936.19 1520.28C2985.5 1522.76 3030.44 1495.37 3050.84 1450.57C3065.86 1417.57 3101.9 1399.63 3136.54 1407.95L3270.98 1440.21C3282.92 1443.16 3290.65 1454.85 3288.7 1466.85L3041.11 3000.2C3040.06 3006.82 3036.19 3012.71 3030.5 3016.33C3026.68 3018.76 3022.29 3020.02 3017.85 3020.02ZM2084.43 2720.95L3011.52 2986.49L3256.54 1469.03L3129.22 1438.48C3109.16 1433.67 3088.23 1444.23 3079.41 1463.58C3053.66 1520.16 2996.81 1554.66 2934.64 1551.64C2858.82 1547.88 2796.14 1485.57 2791.93 1409.8C2791.63 1404.3 2791.62 1398.74 2791.9 1393.28C2792.96 1372.84 2779.06 1354.49 2758.84 1349.64L2364.21 1254.98L2248.76 1859.85C2248.17 1862.9 2249.46 1866.01 2252.04 1867.78C2300.48 1900.96 2329.41 1955.78 2329.41 2014.42C2329.41 2096.87 2271.1 2169.78 2190.77 2187.8C2187.85 2188.45 2185.59 2190.85 2185 2193.91L2084.43 2720.95ZM2083.1 2727.95L2083.11 2727.9C2083.1 2727.92 2083.1 2727.93 2083.1 2727.95ZM2083.08 2728.01C2083.09 2727.99 2083.09 2727.97 2083.1 2727.95L2083.08 2728.01ZM2077.52 2718.97L2077.47 2718.95C2077.48 2718.96 2077.5 2718.96 2077.52 2718.97ZM2365.76 1246.86L2365.75 1246.9C2365.76 1246.88 2365.76 1246.87 2365.76 1246.86ZM3010.12 2995.2C3010.11 2995.21 3010.11 2995.22 3010.11 2995.23L3010.12 2995.2Z" />
						</g>
					</g>
				</g>
				<g id="&lt;Group&gt;">
					<g id="&lt;Group&gt;">
						<g id="&lt;Group&gt;">
							<path id="&lt;Compound Path&gt;" fill-rule="evenodd" class="shp2" d="M3029.58 3017.37C3026.02 3017.37 3022.44 3016.39 3019.26 3014.42C3012.49 3010.24 3008.94 3002.46 3010.21 2994.61L3255.64 1474.7C3257.16 1465.29 3264.87 1458.51 3274.4 1458.21C3283.94 1457.93 3292.05 1464.2 3294.16 1473.5L3555.22 2629.4C3556.95 2637.1 3553.94 2645.05 3547.53 2649.66L3041.03 3013.67C3037.61 3016.13 3033.6 3017.37 3029.58 3017.37ZM3276.93 1539.78L3045.72 2971.63L3522.87 2628.71L3276.93 1539.78ZM3031.87 3000.92L3031.92 3000.92L3031.87 3000.92Z" />
						</g>
					</g>
				</g>
				<g id="&lt;Group&gt;" style="opacity: 0.302">
					<g id="&lt;Group&gt;">
						<g id="&lt;Group&gt;">
							<path id="&lt;Path&gt;" class="shp2" d="M2758.88 1780.39C2755.97 1793.88 2752 1805.9 2746.83 1816.53C2747.95 1737.79 2692.98 1716.3 2624.92 1701.61C2563.54 1688.37 2500.53 1713.38 2470.25 1756.96C2468.61 1743.73 2468.57 1730.6 2470.51 1718.15C2480.77 1649.76 2562.95 1602.51 2642.6 1619.7C2722.24 1636.89 2784.14 1663.37 2758.88 1780.39Z" />
						</g>
					</g>
				</g>
				<g id="&lt;Group&gt;">
					<g id="&lt;Group&gt;">
						<g id="&lt;Group&gt;">
							<path id="&lt;Compound Path&gt;" fill-rule="evenodd" class="shp2" d="M2771.16 1769.7C2766.57 1788.6 2759.21 1807.62 2746.84 1823.68C2743.96 1827.82 2740.35 1831.4 2736.88 1835.06C2735.23 1836.98 2733.2 1838.49 2731.28 1840.13L2725.5 1844.98L2719.24 1849.14C2717.17 1850.54 2715.14 1852.03 2712.89 1853.1C2708.47 1855.35 2704.17 1857.95 2699.56 1859.68C2681.34 1867.34 2662.36 1871.89 2643.29 1875.74L2628.92 1878.28L2614.51 1880.02C2609.67 1880.59 2604.89 1880.86 2600.08 1881.05L2592.86 1881.29C2590.49 1881.39 2588.06 1881.5 2585.32 1881.21C2564.09 1880.53 2542.81 1873.04 2525.6 1860.77C2508.16 1848.68 2494.75 1832.19 2485 1814.51C2475.21 1796.76 2468.93 1777.63 2465.32 1758.16C2461.94 1738.61 2461.19 1718.7 2464.56 1698.59C2471.72 1658.06 2499.14 1621.17 2536.17 1601.22C2554.63 1591.17 2575.02 1584.62 2596.1 1581.75C2606.64 1580.35 2617.37 1579.77 2628.08 1580.54C2633.45 1580.65 2638.74 1581.65 2644.06 1582.47C2646.63 1582.93 2649.52 1583.32 2651.83 1583.88L2658.91 1585.53C2663.6 1586.65 2668.34 1587.92 2673.1 1589.31C2677.82 1590.64 2682.56 1592.14 2687.34 1593.85L2694.48 1596.3L2701.65 1599.17L2708.76 1602.17L2715.85 1605.72C2734.57 1615.08 2753.34 1629.29 2765.46 1648.92C2768.04 1654.01 2770.95 1658.94 2772.94 1664.16L2775.59 1672.07C2776.46 1674.7 2777.39 1677.31 2777.74 1679.99L2779.16 1687.95C2779.62 1690.6 2780.16 1693.23 2780.16 1695.84C2780.33 1701.07 2780.81 1706.29 2780.74 1711.4C2780.47 1731.94 2775.62 1750.98 2771.16 1769.7ZM2752.07 1765.58C2752.71 1761.12 2753.21 1756.63 2753.65 1752.16L2754.33 1745.45L2754.45 1738.8C2754.45 1734.38 2754.77 1729.94 2754.51 1725.61L2753.45 1712.77C2751.19 1695.94 2745.28 1680.82 2735.8 1669.79C2716.52 1647.94 2683.05 1639.36 2648.2 1632.04L2641.64 1630.58C2639.41 1630.05 2637.65 1629.91 2635.64 1629.54C2631.73 1628.96 2627.89 1627.86 2623.91 1627.73C2616.03 1626.72 2608.05 1626.37 2600 1626.42C2583.91 1626.74 2567.67 1629.87 2552.34 1635.67C2537.06 1641.48 2522.22 1649.44 2509.81 1660.56C2497.37 1671.57 2487.82 1686.19 2483.98 1702.54C2480.02 1719.03 2480.8 1737.17 2484.89 1754.1C2488.87 1771.15 2496.44 1787.29 2506.35 1801.22C2516.27 1815.19 2528.66 1826.84 2542.39 1835.35C2556.23 1843.78 2571.46 1848.75 2587.48 1850.37C2588.5 1850.49 2589.42 1850.73 2590.52 1850.85L2593.9 1851.13L2600.67 1851.68C2605.19 1852.06 2609.73 1852.75 2614.22 1852.93L2627.79 1854.06L2641.33 1854.55C2659.33 1854.81 2677.46 1852.5 2693.77 1845.86C2702.01 1842.76 2709.5 1838.25 2716.44 1833.14C2722.99 1827.58 2729.14 1821.52 2733.69 1814.21C2743.17 1799.9 2748.81 1783.07 2752.07 1765.58Z" />
						</g>
					</g>
				</g>
				<g id="&lt;Group&gt;" style="opacity: 0.302">
					<g id="&lt;Group&gt;">
						<g id="&lt;Group&gt;">
							<path id="&lt;Path&gt;" class="shp2" d="M3360.41 2184.47C3360.48 2194.71 3359.9 2204.06 3358.62 2212.59C3350.84 2155.33 3323.02 2148.54 3289.84 2148.76C3259.92 2148.96 3233.27 2177.16 3223.79 2213.58C3221.63 2204.26 3220.23 2194.74 3219.81 2185.41C3217.38 2134.19 3250.6 2086.81 3289.43 2086.55C3328.26 2086.29 3359.81 2095.6 3360.41 2184.47Z" />
						</g>
					</g>
				</g>
				<g id="&lt;Group&gt;">
					<g id="&lt;Group&gt;">
						<g id="&lt;Group&gt;">
							<path id="&lt;Compound Path&gt;" fill-rule="evenodd" class="shp2" d="M3366.03 2174.75C3365.76 2186.32 3364.79 2198 3362.09 2209.48C3359.45 2220.93 3355.19 2232.26 3348.44 2242.25C3341.64 2252.2 3332.65 2260.55 3322.77 2267.52C3320.32 2269.34 3317.73 2270.86 3315.11 2272.35C3312.51 2273.95 3309.85 2275.32 3307.13 2276.58C3304.41 2277.89 3301.68 2279.16 3298.88 2280.13C3295.96 2281.12 3293.61 2282.26 3289.9 2283.08C3282.98 2284.74 3275.36 2284.29 3268.64 2282.04C3261.82 2279.92 3255.95 2276.18 3251.07 2271.86C3241.18 2263.22 3234.85 2252.43 3229.75 2241.64C3224.77 2230.71 3221.35 2219.39 3218.74 2207.98C3216.21 2196.52 3214.43 2184.99 3213.94 2173.16C3213.34 2161.29 3213.92 2149.26 3216.17 2137.3C3218.43 2125.37 3222.39 2113.47 3228.84 2102.59C3235.28 2091.77 3243.84 2081.67 3255.12 2073.96C3258.09 2072.23 3260.92 2070.27 3264.12 2068.81C3267.4 2067.52 3270.52 2065.86 3274.09 2065.13L3279.34 2063.85C3281.1 2063.5 3282.94 2063.39 3284.75 2063.23C3286.5 2063.11 3288.53 2062.89 3290.05 2062.91L3294.6 2062.98C3306.64 2063.35 3320.37 2065.2 3333.1 2072.28C3334.71 2073.04 3336.18 2074.12 3337.66 2075.18C3339.13 2076.25 3340.65 2077.25 3342.01 2078.43L3345.85 2082.24C3347.16 2083.48 3348.33 2084.81 3349.31 2086.26C3351.43 2089.07 3353.52 2091.88 3354.96 2094.9L3357.31 2099.35C3357.98 2100.85 3358.51 2102.38 3359.1 2103.89C3363.52 2116.03 3365.4 2128.12 3366 2139.88C3366.63 2145.79 3366.33 2151.61 3366.52 2157.43C3366.46 2163.24 3366 2169 3366.03 2174.75ZM3354.64 2174.83C3354.28 2169.28 3353.66 2163.73 3353.02 2158.25C3352.04 2152.83 3351.56 2147.29 3350.21 2142.05C3348.18 2131.36 3344.56 2121.23 3339.87 2112.7C3335.13 2104.13 3329.01 2097.95 3321.44 2094.91L3318.55 2093.77C3317.58 2093.41 3316.46 2093.24 3315.43 2092.93C3313.44 2092.24 3311.06 2092.02 3308.85 2091.6C3304.19 2091.06 3299.27 2090.79 3294.05 2090.82L3290.12 2090.79C3288.82 2090.78 3288.04 2090.98 3286.97 2091.04C3285.97 2091.17 3284.95 2091.07 3283.95 2091.26L3280.94 2091.9C3276.88 2092.67 3272.86 2094.36 3268.8 2096.25C3260.8 2100.46 3253.43 2107.14 3247.25 2115.01C3234.95 2130.66 3225.33 2151.26 3225.49 2172.89C3225.45 2194.52 3231.85 2216.56 3242.75 2234.87C3253.34 2253.02 3270.02 2268.67 3286.4 2265.41C3288.26 2265.2 3291.23 2264.37 3293.74 2263.78C3296.38 2263.22 3298.97 2262.59 3301.52 2261.81C3304.12 2261.14 3306.71 2260.44 3309.18 2259.51C3311.72 2258.67 3314.24 2257.79 3316.62 2256.64C3326.43 2252.58 3335.1 2245.93 3341.25 2237.28C3347.5 2228.68 3350.95 2218.23 3352.82 2207.59C3354.59 2196.88 3354.95 2185.86 3354.64 2174.83Z" />
						</g>
					</g>
				</g>
				<g id="&lt;Group&gt;" style="opacity: 0.302">
					<g id="&lt;Group&gt;">
						<g id="&lt;Group&gt;">
							<path id="&lt;Path&gt;" class="shp2" d="M3453.05 2439.67C3453.72 2449.61 3453.76 2458.71 3453.13 2467.07C3442.8 2411.91 3417.66 2406.8 3388.17 2408.8C3361.58 2410.6 3339.57 2439.4 3333.31 2475.26C3330.84 2466.33 3329.02 2457.17 3328.1 2448.13C3322.87 2398.55 3349.58 2350.78 3384.08 2348.44C3418.59 2346.11 3447.21 2353.45 3453.05 2439.67Z" />
						</g>
					</g>
				</g>
				<g id="&lt;Group&gt;">
					<g id="&lt;Group&gt;">
						<g id="&lt;Group&gt;">
							<path id="&lt;Compound Path&gt;" fill-rule="evenodd" class="shp2" d="M3458.09 2429.9C3458.87 2451.52 3457.19 2474.26 3447.14 2494.76C3442.13 2504.96 3434.61 2513.88 3426.08 2521.59C3423.92 2523.52 3421.7 2525.38 3419.34 2526.98C3417.03 2528.72 3414.67 2530.38 3412.19 2531.78C3409.74 2533.25 3407.27 2534.75 3404.7 2535.89C3402.02 2537.08 3399.91 2538.35 3396.31 2539.45C3389.62 2541.58 3381.97 2541.28 3375.42 2539.13C3368.85 2536.99 3363.31 2533.34 3358.72 2529.21C3349.46 2520.93 3343.6 2510.79 3338.68 2500.69C3333.91 2490.47 3330.43 2479.92 3327.6 2469.27C3324.86 2458.59 3322.68 2447.84 3321.52 2436.78C3320.2 2425.69 3319.92 2414.41 3320.9 2403.02C3321.9 2391.66 3324.31 2380.14 3329.09 2369.23C3333.87 2358.37 3340.62 2347.87 3350.39 2339.15C3352.79 2336.96 3355.63 2335.08 3358.32 2333.1C3361.38 2331.54 3364.26 2329.65 3367.62 2328.51C3370.97 2327.36 3374.29 2326.13 3377.92 2325.75C3379.64 2325.51 3381.63 2325.17 3383.13 2325.08L3387.49 2324.9C3390.35 2324.76 3393.49 2324.96 3396.47 2325C3399.65 2325.37 3402.67 2325.47 3405.94 2326.19C3412.33 2327.12 3419.03 2329.68 3425.13 2333.05C3428 2335.09 3431.14 2336.81 3433.51 2339.36L3437.19 2342.98L3440.25 2346.95C3444.26 2352.25 3447.02 2357.95 3449.2 2363.56C3453.32 2374.89 3455.32 2386.12 3456.44 2397.14C3457.16 2402.66 3457.25 2408.14 3457.68 2413.6C3457.87 2419.06 3457.76 2424.5 3458.09 2429.9ZM3446.72 2430.67C3446.08 2425.47 3445.12 2420.29 3444.24 2415.15C3443.05 2410.09 3442.19 2404.93 3440.76 2400.01C3438.24 2390.06 3434.56 2380.58 3430.01 2372.47C3425.51 2364.22 3419.5 2358.47 3413.08 2355.48C3406.4 2352.73 3398.23 2352.02 3388.53 2352.71L3384.91 2352.91C3383.76 2352.99 3383.13 2353.21 3382.21 2353.32C3380.49 2353.39 3378.8 2354 3377.07 2354.48C3375.32 2354.88 3373.65 2355.92 3371.87 2356.52C3370.2 2357.58 3368.38 2358.37 3366.7 2359.59C3359.89 2364.32 3353.77 2371.35 3348.83 2379.38C3339.07 2395.39 3331.64 2415.44 3333.04 2435.81C3334.2 2456.21 3341.01 2476.63 3351.59 2493.74C3356.77 2502.32 3363.21 2510.07 3370.21 2515.66C3373.74 2518.38 3377.4 2520.49 3380.97 2521.66C3384.58 2522.61 3388 2522.92 3391.58 2522.06C3393.13 2521.79 3395.86 2520.8 3398.15 2520.05C3400.57 2519.34 3402.9 2518.51 3405.21 2517.61C3407.6 2516.81 3409.88 2515.88 3412.12 2514.82C3414.44 2513.88 3416.6 2512.71 3418.74 2511.48C3427.41 2506.74 3434.82 2499.62 3439.39 2490.72C3444.14 2481.92 3446.4 2471.83 3447.27 2461.65C3448.05 2451.42 3447.66 2441.04 3446.72 2430.67Z" />
						</g>
					</g>
				</g>
				<g id="&lt;Group&gt;" style="opacity: 0.302">
					<g id="&lt;Group&gt;">
						<g id="&lt;Group&gt;">
							<path id="&lt;Path&gt;" class="shp2" d="M2578.37 2430.68C2576.16 2416.99 2574.24 2402.56 2574.54 2387.39C2575.72 2322.01 2443.48 2277.68 2372.5 2315.09C2335.98 2334.23 2303.58 2368.83 2287.53 2407.12C2252.63 2340.71 2305.65 2253.97 2372.5 2218.78C2443.48 2181.52 2575.72 2225.85 2574.54 2291.23C2573.51 2345.71 2599.72 2390.19 2578.37 2430.68Z" />
						</g>
					</g>
				</g>
				<g id="&lt;Group&gt;">
					<g id="&lt;Group&gt;">
						<g id="&lt;Group&gt;">
							<g id="&lt;Group&gt;">
								<path id="&lt;Compound Path&gt;" fill-rule="evenodd" class="shp2" d="M2500.68 2500.29C2481.37 2507.85 2460.91 2513.91 2439.51 2515.21C2418.19 2516.76 2396.27 2513.04 2376.67 2504.43C2357.09 2495.71 2339.75 2483.29 2323.46 2469.9C2315.33 2463.16 2307.64 2455.95 2300.31 2448.44C2296.69 2444.64 2293.14 2440.8 2289.74 2436.83L2284.78 2430.79L2282.3 2427.75L2279.76 2424.22C2266.21 2405.21 2259.89 2380.84 2261.35 2357.99C2262.44 2334.96 2270.35 2313.57 2281.03 2294.81C2291.8 2275.97 2305.56 2259.48 2320.84 2244.86C2336.34 2230.33 2353.23 2217.84 2372.54 2207.75C2392.47 2197.99 2414.04 2193.44 2435.66 2191.56C2457.33 2189.87 2479.34 2191.35 2500.78 2196.73C2522.15 2202.28 2543.24 2210.85 2562.62 2225.48C2572.19 2232.89 2581.52 2241.96 2588.52 2254.05C2592.04 2260.05 2594.8 2266.84 2596.59 2274.07C2597.44 2277.71 2598.09 2281.42 2598.3 2285.2C2598.47 2287.08 2598.46 2288.97 2598.48 2290.86L2598.5 2294.43C2598.27 2311.79 2600.87 2330.14 2603.73 2350.41C2605.1 2360.55 2606.49 2371.25 2606.7 2382.75C2606.96 2394.17 2606.1 2406.52 2602.32 2418.66C2598.67 2430.77 2592.18 2442.07 2584.28 2451.12C2576.38 2460.26 2567.26 2467.29 2558.07 2473.32C2539.59 2485.4 2519.99 2493.02 2500.68 2500.29ZM2493.09 2482.29C2501.99 2478.09 2510.55 2473.21 2518.71 2468.06C2526.96 2463.01 2534.58 2457.3 2541.54 2451.31C2548.49 2445.32 2554.47 2438.66 2558.76 2431.7C2563.09 2424.72 2565.59 2417.51 2566.67 2410.03C2570.98 2380.08 2550.96 2340.69 2550.7 2294.48L2550.68 2290.49C2550.64 2289.86 2550.69 2289.23 2550.6 2288.6C2550.54 2287.34 2550.29 2286.08 2550.1 2284.79C2549.61 2282.19 2548.56 2279.54 2547.27 2276.7C2544.51 2271.1 2540 2265.03 2534.16 2259.51C2522.42 2248.34 2506.38 2239.3 2489.43 2232.62C2472.43 2225.88 2454.19 2220.77 2435.53 2218.84C2416.96 2216.83 2397.67 2218.45 2380.89 2225.69C2363.94 2233.28 2348.04 2245.18 2334.95 2259.03C2321.7 2272.87 2310.99 2289.07 2303.48 2306.2C2295.97 2323.32 2291.77 2341.45 2291.79 2358.83C2291.93 2376.27 2296.61 2392.64 2305.55 2407.17C2306.12 2408.07 2306.65 2409 2307.18 2409.94L2309.17 2413L2313.19 2419.13C2315.93 2423.15 2318.5 2427.32 2321.3 2431.29C2326.75 2439.37 2332.38 2447.33 2338.52 2454.84C2350.74 2469.82 2365.55 2482.85 2382.82 2490.76C2399.98 2498.85 2419.2 2501.61 2438.02 2499.08C2456.86 2496.69 2475.3 2490.31 2493.09 2482.29Z" />
							</g>
						</g>
					</g>
				</g>
				<g id="&lt;Group&gt;">
					<g id="&lt;Group&gt;">
						<g id="&lt;Group&gt;">
							<path id="&lt;Path&gt;" class="shp0" d="M2197.96 2567.35C2140.26 2605.03 2075.66 2615.15 2015.33 2612.05C1936.55 2607.97 1863.29 2586.95 1795.58 2548.98L1875.21 2335.62C1935.97 2360.69 2002.68 2372.4 2075.35 2370.75C2096.46 2370.28 2118.28 2368.27 2140.22 2364.23C2309.7 2332.83 2315.12 2490.81 2197.96 2567.35Z" />
						</g>
					</g>
				</g>
				<g id="&lt;Group&gt;">
					<g id="&lt;Group&gt;">
						<g id="&lt;Group&gt;">
							<path id="&lt;Path&gt;" class="shp1" d="M2197.96 2567.35C2140.26 2605.03 2075.66 2615.15 2015.33 2612.05C2003.68 2571.51 1997.91 2520.17 2016.24 2468.52C2031.31 2426.05 2053.44 2394.1 2075.35 2370.75C2096.46 2370.28 2118.28 2368.27 2140.22 2364.23C2309.7 2332.83 2315.12 2490.81 2197.96 2567.35Z" />
						</g>
					</g>
				</g>
				<g id="&lt;Group&gt;">
					<g id="&lt;Group&gt;">
						<g id="&lt;Group&gt;">
							<path id="&lt;Path&gt;" class="shp2" d="M1798.13 2544.39C1820.31 2547.16 1840.28 2553.52 1860.05 2560.35C1879.95 2566.8 1899.54 2573.89 1919.53 2579.91C1939.49 2585.95 1959.97 2590.09 1980.5 2592.93C2001.04 2595.76 2021.71 2597.15 2042.26 2596.74C2083.31 2595.99 2123.96 2587.71 2160.48 2570.36L2173.97 2563.48L2186.94 2555.66C2191.29 2553.09 2195.17 2550.05 2199.31 2547.27C2203.12 2544.11 2207.23 2541.27 2210.83 2537.88C2218.4 2531.47 2225.08 2524.2 2231.46 2516.75C2237.52 2509.06 2243.17 2501.06 2247.75 2492.54C2252.27 2484.02 2255.99 2475.16 2258.58 2466.1C2261.03 2457.03 2262.28 2447.81 2262.07 2438.86C2261.75 2420.9 2254.78 2404.52 2241.8 2393.71C2235.38 2388.22 2227.39 2384.23 2218.8 2381.36C2214.59 2379.74 2209.92 2378.96 2205.41 2377.88L2198.35 2376.92L2194.82 2376.44L2191.19 2376.26L2183.94 2375.89C2181.49 2375.87 2179.02 2375.99 2176.56 2376.03C2171.66 2376 2166.68 2376.57 2161.72 2377.03C2156.76 2377.32 2151.76 2378.4 2146.78 2379.09L2130.61 2381.55C2108.55 2385.27 2086.26 2386.2 2064.08 2386.54C2041.9 2386.28 2019.78 2384.94 1997.89 2382.07C1992.4 2381.46 1986.98 2380.45 1981.52 2379.66C1976.05 2378.89 1970.63 2377.91 1965.22 2376.86C1954.38 2374.89 1943.48 2373.15 1932.66 2370.91C1921.87 2368.58 1911.32 2365.19 1901.15 2360.68C1891.04 2355.99 1881.4 2349.98 1873.2 2340.45C1871.09 2337.99 1871.37 2334.29 1873.82 2332.18C1874.72 2331.41 1875.8 2330.95 1876.89 2330.81L1877.19 2330.77C1900.63 2327.73 1920.39 2333.2 1940.66 2338.37C1950.71 2341.1 1960.75 2344.13 1971.03 2345.97C1976.14 2347.03 1981.29 2347.92 1986.45 2348.65C1991.61 2349.4 1996.75 2350.36 2001.93 2350.93C2022.61 2353.65 2043.39 2354.88 2064.13 2355.14C2084.83 2354.8 2105.57 2353.96 2125.87 2350.51L2141.53 2348.13C2147.17 2347.34 2152.7 2346.17 2158.46 2345.8C2164.18 2345.26 2169.88 2344.64 2175.72 2344.65C2178.63 2344.59 2181.52 2344.47 2184.44 2344.49L2193.26 2344.93L2197.67 2345.17L2202.12 2345.75C2205.08 2346.15 2208.04 2346.5 2211 2346.98C2216.93 2348.33 2222.88 2349.41 2228.74 2351.57C2240.42 2355.48 2252.04 2361.21 2262.01 2369.68C2271.98 2378.06 2280.15 2388.91 2285.39 2400.84C2290.69 2412.78 2293.16 2425.59 2293.46 2438.07C2293.75 2450.57 2292 2462.81 2288.84 2474.46C2285.55 2486.05 2280.91 2497.07 2275.37 2507.49C2252.92 2549.26 2214.59 2579.37 2174.01 2598.69C2132.87 2618.27 2087.52 2627.33 2042.85 2628.13C2020.48 2628.57 1998.19 2627.06 1976.21 2624.04C1954.22 2621.02 1932.6 2616.34 1911.12 2611.24C1889.65 2606.1 1868.43 2599.72 1848.27 2590.76C1828.09 2581.93 1808.63 2571.1 1793.01 2553.52C1790.98 2551.24 1791.18 2547.74 1793.47 2545.71C1794.7 2544.62 1796.29 2544.17 1797.81 2544.36L1798.13 2544.39Z" />
						</g>
					</g>
				</g>
				<g id="&lt;Group&gt;" style="opacity: 0.302">
					<g id="&lt;Group&gt;">
						<g id="&lt;Group&gt;">
							<path id="&lt;Path&gt;" class="shp2" d="M2294.36 3031.86C2269.98 3083.83 2225.43 3133.09 2169.31 3142.51C2127.23 3149.57 2096.19 3137.52 2059.41 3124.06C2030.6 3113.5 1998.22 3102.08 1954.22 3098.35C1921.13 3095.56 1887.46 3097.06 1853.86 3099.29C1808.92 3102.32 1764.14 3106.59 1721.12 3103.57C1684.62 3101.02 1649.41 3093.13 1616.44 3074.72C1326.59 2912.98 1447.71 2614.6 1574.64 2418.43C1461.01 2612.56 1379.65 2877.14 1646.43 3026.01C1679.4 3044.42 1714.6 3052.31 1751.11 3054.86C1794.12 3057.88 1838.91 3053.61 1883.85 3050.58C1917.45 3048.35 1951.12 3046.86 1984.21 3049.64C2028.21 3053.37 2060.59 3064.79 2089.4 3075.35C2126.17 3088.81 2157.22 3100.86 2199.29 3093.8C2237.13 3087.48 2269.67 3063.03 2294.36 3031.86Z" />
						</g>
					</g>
				</g>
				<g id="&lt;Group&gt;" style="opacity: 0.302">
					<g id="&lt;Group&gt;">
						<g id="&lt;Group&gt;">
							<path id="&lt;Path&gt;" class="shp2" d="M2197.96 2567.35C2140.26 2605.03 2075.66 2615.15 2015.33 2612.05C1936.55 2607.97 1863.29 2586.95 1795.58 2548.98C1830.97 2532.92 1870.81 2529.03 1908.48 2538.63C1936.47 2545.76 1971.44 2551.53 2016.31 2556.4C2076.37 2562.91 2141.24 2549.37 2198.94 2511.69C2238.86 2485.63 2264.57 2450.11 2274.34 2415.84C2288.31 2461.96 2260.72 2526.33 2197.96 2567.35Z" />
						</g>
					</g>
				</g>
				<g id="&lt;Group&gt;">
					<g id="&lt;Group&gt;">
						<g id="&lt;Group&gt;">
							<path id="&lt;Path&gt;" class="shp2" d="M2166.75 2400.93C2177.78 2391.58 2190.1 2383.46 2203.81 2376.88C2210.73 2373.7 2218.04 2370.95 2225.91 2368.96C2233.84 2367.14 2242.36 2366.14 2251.47 2366.72L2252.44 2366.78C2261.3 2367.35 2268.03 2374.99 2267.46 2383.85C2266.9 2392.71 2259.26 2399.44 2250.39 2398.87C2248.29 2398.74 2246.26 2398.18 2244.48 2397.33C2239.67 2395.03 2233.93 2393.35 2227.69 2392.44C2221.42 2391.68 2214.75 2391.58 2207.95 2392.03C2194.35 2393.13 2180.32 2396.14 2166.75 2400.93Z" />
						</g>
					</g>
				</g>
				<g id="&lt;Group&gt;">
					<g id="&lt;Group&gt;">
						<g id="&lt;Group&gt;">
							<path id="&lt;Path&gt;" class="shp2" d="M2192.85 2463.7C2197.92 2457.91 2203.79 2452.69 2210.1 2447.91C2216.43 2443.15 2223.33 2438.95 2230.77 2435.41C2238.18 2431.79 2246.24 2429.13 2254.73 2427.38C2263.22 2425.42 2272.16 2425.24 2281.26 2425.59C2290.06 2425.92 2296.93 2433.33 2296.59 2442.13C2296.26 2450.94 2288.85 2457.81 2280.05 2457.47C2278.21 2457.4 2276.46 2457.02 2274.84 2456.39L2274.51 2456.26C2268.73 2453.97 2262.53 2451.66 2255.87 2450.9C2249.25 2449.94 2242.24 2449.69 2235.15 2450.48C2228.05 2451.2 2220.83 2452.66 2213.71 2454.88C2206.61 2457.12 2199.55 2459.96 2192.85 2463.7Z" />
						</g>
					</g>
				</g>
				<g id="&lt;Group&gt;">
					<g id="&lt;Group&gt;">
						<g id="&lt;Group&gt;">
							<path id="&lt;Path&gt;" class="shp7" d="M3105.83 2158.39C3088.05 2240.81 3035.82 2277.22 2907.57 2271.79C2813.83 2267.82 2761.89 2165.3 2773.72 2086.71C2785.57 2007.96 2880.28 1953.51 2971.99 1973.31C3063.7 1993.1 3134.92 2023.62 3105.83 2158.39Z" />
						</g>
					</g>
					<g id="&lt;Group&gt;">
						<g id="&lt;Group&gt;">
							<path id="&lt;Compound Path&gt;" fill-rule="evenodd" class="shp2" d="M2931.45 2274.77C2923.74 2274.77 2915.75 2274.59 2907.46 2274.24C2869.65 2272.64 2836.07 2255.31 2810.37 2224.14C2779.64 2186.87 2764.3 2132.78 2771.29 2086.34C2776.45 2052.13 2797.15 2020.95 2829.61 1998.53C2870.01 1970.64 2923.43 1960.31 2972.51 1970.91C3061.28 1990.07 3138.46 2018.86 3108.23 2158.91C3090.68 2240.23 3038.86 2274.77 2931.45 2274.77ZM2933.82 1971.73C2897.63 1971.73 2861.53 1982.45 2832.4 2002.56C2801.07 2024.2 2781.09 2054.22 2776.15 2087.07C2769.36 2132.2 2784.27 2184.77 2814.16 2221.01C2831.45 2241.99 2861.7 2267.39 2907.67 2269.34C3030.1 2274.57 3085.01 2243.28 3103.44 2157.87C3132.71 2022.26 3057.72 1994.32 2971.47 1975.7C2959.11 1973.03 2946.46 1971.73 2933.82 1971.73Z" />
						</g>
					</g>
				</g>
				<g id="&lt;Group&gt;" style="opacity: 0.302">
					<g id="&lt;Group&gt;">
						<g id="&lt;Group&gt;">
							<path id="&lt;Path&gt;" class="shp2" d="M3102.68 2173.06C3099.33 2188.6 3094.76 2202.44 3088.81 2214.68C3090.1 2124.01 3026.8 2099.27 2948.42 2082.35C2877.74 2067.09 2805.18 2095.9 2770.31 2146.08C2768.42 2130.85 2768.37 2115.73 2770.61 2101.39C2782.42 2022.63 2877.06 1968.22 2968.78 1988.02C3060.49 2007.81 3131.77 2038.31 3102.68 2173.06Z" />
						</g>
					</g>
				</g>
				<g id="&lt;Group&gt;">
					<g id="&lt;Group&gt;">
						<g id="&lt;Group&gt;">
							<path id="&lt;Compound Path&gt;" fill-rule="evenodd" class="shp2" d="M3115.38 2160.45C3110.2 2182.1 3101.85 2203.85 3087.81 2222.21C3084.56 2226.95 3080.44 2231.03 3076.5 2235.22C3074.63 2237.41 3072.31 2239.14 3070.13 2241.02L3063.55 2246.56L3056.41 2251.32C3054.04 2252.92 3051.72 2254.61 3049.15 2255.83C3044.1 2258.4 3039.19 2261.37 3033.91 2263.33C3013.07 2272.08 2991.27 2277.14 2969.39 2281.26L2952.91 2283.96L2936.37 2285.74C2930.83 2286.34 2925.33 2286.57 2919.81 2286.76L2911.54 2286.98C2908.82 2287.06 2906.02 2287.16 2902.93 2286.94C2878.87 2286.01 2854.83 2277.58 2835.26 2263.74C2815.45 2250.08 2800.09 2231.46 2788.85 2211.38C2777.57 2191.21 2770.24 2169.41 2766.05 2147.17C2762.16 2124.86 2761.05 2102.04 2765.23 2079.17C2773.52 2033.02 2805.34 1991.64 2847.47 1969.34C2868.49 1958.09 2891.67 1950.81 2915.57 1947.7C2927.52 1946.19 2939.67 1945.59 2951.78 1946.5C2957.87 1946.64 2963.85 1947.8 2969.87 1948.72C2972.78 1949.25 2976.04 1949.69 2978.68 1950.31C2981.38 1950.93 2984.08 1951.47 2986.78 1952.15C2997.58 1954.79 3008.46 1957.79 3019.32 1961.5C3030.21 1965.14 3041.12 1969.4 3051.83 1974.8C3062.56 1980.12 3073.08 1986.66 3082.78 1994.7C3092.51 2002.68 3101.22 2012.41 3108.05 2023.28C3114.79 2034.22 3119.47 2046.19 3122.21 2058.15C3124.99 2070.14 3125.88 2082.1 3125.83 2093.74C3125.64 2117.08 3120.77 2139.07 3115.38 2160.45ZM3096.29 2156.33C3099.69 2135.69 3100.77 2114.75 3098.54 2095.09C3096.24 2075.41 3089.57 2057.43 3078.37 2044.14C3055.89 2017.44 3016.38 2007.22 2976.12 1998.67L2968.49 1997.01C2965.9 1996.41 2963.81 1996.22 2961.44 1995.79C2956.83 1995.11 2952.3 1993.84 2947.61 1993.7C2938.32 1992.55 2928.92 1992.21 2919.46 1992.37C2900.55 1992.93 2881.53 1996.79 2863.63 2003.79C2845.79 2010.81 2828.6 2020.43 2814.31 2033.68C2799.99 2046.79 2789.05 2063.99 2784.65 2083.12C2782.07 2092.57 2781.5 2102.89 2781.65 2112.95C2781.88 2123.09 2783.3 2133.21 2785.61 2143.11C2790.18 2162.93 2798.79 2181.75 2810.2 2198.09C2821.61 2214.46 2835.96 2228.25 2852.06 2238.33C2868.26 2248.33 2886.25 2254.23 2905.09 2256.1C2907.35 2256.39 2909.92 2256.66 2912.58 2256.81L2920.41 2257.39C2925.63 2257.78 2930.88 2258.5 2936.08 2258.66L2951.77 2259.74L2967.43 2260.07C2988.25 2260.06 3009.2 2257.23 3028.13 2249.51C3037.69 2245.9 3046.4 2240.65 3054.49 2234.72C3062.12 2228.26 3069.31 2221.22 3074.67 2212.73C3085.81 2196.12 3092.43 2176.58 3096.29 2156.33Z" />
						</g>
					</g>
				</g>
				<g id="&lt;Group&gt;">
					<g id="&lt;Group&gt;">
						<g id="&lt;Group&gt;">
							<path id="&lt;Path&gt;" class="shp7" d="M2903.46 2778.63C2850.64 2802.75 2810.58 2792.3 2765.28 2729.15C2732.18 2682.99 2769.97 2617.76 2818.41 2592.33C2866.95 2566.84 2933.11 2590.36 2956.59 2641.81C2980.08 2693.26 2989.84 2739.2 2903.46 2778.63Z" />
						</g>
					</g>
					<g id="&lt;Group&gt;">
						<g id="&lt;Group&gt;">
							<path id="&lt;Compound Path&gt;" fill-rule="evenodd" class="shp2" d="M2855.88 2792.95C2822.47 2792.95 2793.63 2772.88 2763.29 2730.58C2751.06 2713.54 2747.39 2692.76 2752.67 2670.49C2760.29 2638.29 2785.65 2606.76 2817.27 2590.15C2840.55 2577.93 2869.34 2576.2 2896.28 2585.4C2924.34 2595 2947.13 2615.19 2958.82 2640.79C2980.85 2689.06 2994.81 2739.63 2904.48 2780.87C2886.98 2788.86 2870.97 2792.95 2855.88 2792.95ZM2861.53 2584.46C2846.68 2584.46 2832.24 2587.83 2819.56 2594.5C2789.6 2610.22 2764.64 2641.22 2757.44 2671.62C2752.51 2692.47 2755.9 2711.86 2767.28 2727.72C2810.2 2787.57 2848.1 2801.21 2902.44 2776.4C2988.72 2737.01 2976.24 2690.74 2954.36 2642.83C2943.23 2618.45 2921.48 2599.21 2894.69 2590.05C2883.77 2586.31 2872.53 2584.46 2861.53 2584.46Z" />
						</g>
					</g>
				</g>
				<g id="&lt;Group&gt;" style="opacity: 0.302">
					<g id="&lt;Group&gt;">
						<g id="&lt;Group&gt;">
							<path id="&lt;Path&gt;" class="shp2" d="M2967.18 2735C2964.46 2726.24 2960.74 2717.38 2956.61 2708.22C2933.15 2656.77 2866.9 2633.21 2818.37 2658.68C2792.09 2672.47 2768.94 2698.05 2758.67 2726.04C2738.43 2681.13 2773.97 2624.35 2818.37 2600.99C2866.9 2575.51 2933.15 2598.97 2956.61 2650.42C2970.3 2680.53 2979.36 2708.82 2967.18 2735Z" />
						</g>
					</g>
				</g>
				<g id="&lt;Group&gt;">
					<g id="&lt;Group&gt;">
						<g id="&lt;Group&gt;">
							<g id="&lt;Group&gt;">
								<path id="&lt;Compound Path&gt;" fill-rule="evenodd" class="shp2" d="M2907.52 2787.52C2894.14 2793.05 2879.75 2797.46 2864.59 2798.17C2849.51 2799.02 2834.07 2796.23 2820.29 2790.17C2806.59 2783.92 2794.4 2775.44 2782.59 2766.53L2774.01 2759.54C2771.19 2757.15 2768.57 2754.63 2765.87 2752.12C2763.18 2749.59 2760.67 2746.97 2758.24 2744.26L2754.63 2740.17L2752.86 2738.1L2751.06 2735.49C2741 2721.78 2736.54 2703.81 2737.68 2687.31C2738.76 2670.67 2744.67 2655.49 2752.53 2642.39C2760.45 2629.24 2770.31 2617.85 2781.19 2607.79C2792.12 2597.74 2803.99 2588.95 2817.49 2581.92C2831.13 2574.86 2846.17 2570.14 2861.9 2568.28C2877.62 2566.43 2894.03 2567.74 2909.52 2572.79C2924.93 2577.94 2939.61 2586.16 2952.27 2597.32C2955.57 2599.98 2958.45 2603.09 2961.37 2606.22C2964.33 2609.28 2966.85 2612.76 2969.34 2616.27C2971.91 2619.72 2973.99 2623.5 2976 2627.33C2976.93 2629.18 2978.13 2631.32 2978.8 2632.95L2980.99 2638.01C2983.8 2644.81 2986.44 2651.93 2988.53 2659.53C2990.78 2667 2992.46 2675.07 2993.34 2683.49C2995.54 2700.16 2992.17 2719.95 2982.83 2735.25C2973.55 2750.7 2960.39 2761.02 2947.46 2768.93C2934.45 2777.08 2920.78 2782.07 2907.52 2787.52ZM2899.41 2769.75C2902.36 2768.21 2905.15 2766.35 2907.98 2764.62C2910.8 2762.86 2913.66 2761.16 2916.23 2759.14L2924.09 2753.37C2926.56 2751.32 2928.84 2749.14 2931.2 2747.06C2940.29 2738.51 2947.32 2728.83 2950.23 2719.35C2953.21 2709.86 2952.96 2700.82 2950.23 2690.31C2948.79 2685.11 2947.07 2679.75 2944.8 2674.16C2943.66 2671.38 2942.56 2668.62 2941.18 2665.75C2939.93 2662.89 2938.7 2660.03 2937.25 2657.09C2936.54 2655.63 2935.93 2654.14 2935.26 2652.67C2934.6 2651.1 2934 2650.28 2933.38 2649.04C2932.18 2646.75 2931.22 2644.31 2929.68 2642.19C2928.31 2639.96 2927.13 2637.58 2925.42 2635.53C2923.91 2633.35 2922.49 2631.04 2920.62 2629.08C2913.72 2620.73 2904.9 2613.46 2894.83 2607.98C2884.84 2602.4 2873.72 2597.89 2861.8 2595.93C2849.94 2593.94 2837.26 2594.94 2825.93 2599.74C2802.84 2609.67 2784.08 2630.88 2774.95 2653.78C2770.32 2665.24 2767.96 2677.13 2768.25 2688.14C2768.45 2699.22 2771.45 2709.19 2776.85 2718.43L2777.74 2720.25L2779.08 2722.32L2781.7 2726.51C2783.41 2729.35 2785 2732.28 2786.84 2734.97C2788.62 2737.72 2790.24 2740.67 2792.09 2743.38L2797.67 2751.52C2805.41 2762.06 2815.15 2771.12 2826.57 2776.57C2837.92 2782.09 2850.65 2783.86 2863.07 2782.04C2875.5 2780.26 2887.69 2775.64 2899.41 2769.75Z" />
							</g>
						</g>
					</g>
				</g>
				<g id="&lt;Group&gt;">
					<g id="&lt;Group&gt;">
						<g id="&lt;Group&gt;">
							<path id="&lt;Path&gt;" class="shp7" d="M3273.74 2662.11C3273.97 2696.84 3262.63 2716.11 3229.24 2725.29C3204.83 2732 3185.44 2695.37 3183.9 2662.71C3182.35 2629.98 3203.59 2599.69 3228.4 2599.53C3253.21 2599.36 3273.36 2605.33 3273.74 2662.11Z" />
						</g>
					</g>
					<g id="&lt;Group&gt;">
						<g id="&lt;Group&gt;">
							<path id="&lt;Compound Path&gt;" fill-rule="evenodd" class="shp2" d="M3223.46 2728.54C3218.1 2728.54 3212.79 2726.71 3207.83 2723.11C3193.49 2712.7 3182.64 2687.91 3181.45 2662.82C3180.53 2643.3 3187.35 2623.85 3199.71 2610.81C3208.04 2602.02 3218.22 2597.14 3228.38 2597.07C3240.51 2596.97 3252.9 2598.24 3262 2607.77C3271.5 2617.71 3276.01 2634.97 3276.19 2662.09C3276.44 2699.55 3263.03 2718.55 3229.89 2727.66C3227.75 2728.24 3225.6 2728.54 3223.46 2728.54ZM3229.4 2601.98C3229.07 2601.98 3228.75 2601.98 3228.41 2601.98C3219.6 2602.04 3210.67 2606.37 3203.27 2614.18C3191.99 2626.1 3185.5 2644.65 3186.35 2662.59C3187.45 2685.92 3197.7 2709.7 3210.72 2719.14C3216.48 2723.33 3222.5 2724.6 3228.59 2722.93C3259.55 2714.41 3271.52 2697.37 3271.28 2662.13C3271.11 2636.69 3266.92 2620.01 3258.46 2611.16C3250.86 2603.21 3240.06 2601.98 3229.4 2601.98Z" />
						</g>
					</g>
				</g>
				<g id="&lt;Group&gt;" style="opacity: 0.302">
					<g id="&lt;Group&gt;">
						<g id="&lt;Group&gt;">
							<path id="&lt;Path&gt;" class="shp2" d="M3273.78 2668.29C3273.83 2674.84 3273.46 2680.81 3272.64 2686.26C3267.67 2649.68 3249.9 2645.33 3228.7 2645.47C3209.58 2645.6 3192.55 2663.62 3186.49 2686.89C3185.11 2680.93 3184.22 2674.86 3183.96 2668.89C3182.4 2636.17 3203.62 2605.89 3228.43 2605.73C3253.24 2605.56 3273.4 2611.51 3273.78 2668.29Z" />
						</g>
					</g>
				</g>
				<g id="&lt;Group&gt;">
					<g id="&lt;Group&gt;">
						<g id="&lt;Group&gt;">
							<path id="&lt;Compound Path&gt;" fill-rule="evenodd" class="shp2" d="M3279.43 2662.07C3278.93 2676.93 3276.21 2692.68 3267.44 2706.1C3262.97 2712.68 3257.2 2718.37 3250.84 2723.28C3249.26 2724.57 3247.61 2725.68 3245.92 2726.76C3244.24 2727.89 3242.52 2728.9 3240.76 2729.81C3239 2730.74 3237.23 2731.67 3235.41 2732.36C3233.46 2733.05 3232.1 2733.89 3229.35 2734.41L3225.59 2735.14C3224.32 2735.24 3223.01 2735.16 3221.71 2735.14C3219.07 2735.17 3216.63 2734.39 3214.16 2733.75C3211.74 2733.03 3209.61 2731.82 3207.42 2730.76C3205.55 2729.4 3203.51 2728.11 3201.89 2726.57C3195.18 2720.55 3191.1 2713.26 3187.96 2706.02C3181.89 2691.35 3179.37 2676.44 3178.11 2661.09C3177.62 2653.3 3177.71 2645.38 3178.83 2637.34C3179.97 2629.34 3182.24 2621.21 3186.41 2613.73C3190.57 2606.28 3196.25 2599.2 3204.06 2593.65C3208.03 2590.96 3212.42 2588.55 3217.41 2587.2C3219.89 2586.52 3222.41 2585.93 3225.06 2585.81C3226.3 2585.72 3227.82 2585.57 3228.83 2585.59L3231.85 2585.64C3239.82 2585.96 3249.38 2587.3 3258.44 2592.53C3260.68 2593.75 3262.78 2595.44 3264.78 2597.05C3266.54 2598.92 3268.57 2600.65 3269.91 2602.73C3271.4 2604.74 3272.82 2606.77 3273.75 2608.91L3275.3 2612.07C3275.72 2613.12 3276.05 2614.17 3276.43 2615.22C3279.19 2623.63 3280.09 2631.71 3280.21 2639.42C3280.48 2643.31 3280.14 2647.08 3280.13 2650.87C3279.96 2654.64 3279.47 2658.36 3279.43 2662.07ZM3268.04 2662.15C3267.36 2655.12 3266.11 2648.15 3264.42 2641.58C3262.86 2634.95 3260.23 2628.83 3257.19 2624.03C3254.02 2619.21 3250.65 2616.41 3246.79 2615.16C3245.79 2614.84 3244.8 2614.5 3243.61 2614.33C3242.58 2614 3241.22 2613.93 3239.99 2613.74C3237.35 2613.54 3234.47 2613.43 3231.29 2613.48L3228.9 2613.47C3228.1 2613.47 3227.83 2613.59 3227.27 2613.62C3226.28 2613.59 3225.27 2613.76 3224.25 2613.98C3222.19 2614.28 3220.02 2615.07 3217.73 2615.94C3213.21 2618.01 3208.72 2621.65 3204.81 2626.14C3197.05 2635 3189.74 2647.35 3189.67 2660.83C3189.42 2674.3 3193.76 2688.22 3200.98 2699.24C3204.54 2704.75 3208.83 2709.57 3213.21 2712.87C3214.28 2713.76 3215.45 2714.2 3216.5 2714.96C3217.59 2715.36 3218.63 2716.03 3219.68 2716.27C3220.72 2716.45 3221.74 2716.88 3222.75 2716.76C3223.26 2716.77 3223.76 2716.9 3224.28 2716.89C3224.8 2716.8 3225.33 2716.76 3225.87 2716.72C3226.73 2716.85 3228.74 2716.29 3230.27 2716.01C3231.93 2715.73 3233.56 2715.43 3235.15 2715.03C3236.79 2714.71 3238.43 2714.39 3239.99 2713.92C3241.6 2713.51 3243.21 2713.08 3244.72 2712.48C3250.94 2710.33 3256.45 2706.44 3260.25 2701.13C3264.15 2695.89 3266.2 2689.37 3267.26 2682.72C3268.22 2676.02 3268.35 2669.1 3268.04 2662.15Z" />
						</g>
					</g>
				</g>
				<g id="&lt;Group&gt;">
					<g id="&lt;Group&gt;">
						<g id="&lt;Group&gt;">
							<path id="&lt;Path&gt;" class="shp2" d="M1598.11 1871.3C1593.1 1856.57 1591.17 1841.65 1590.95 1826.15C1590.97 1810.75 1592.9 1794.84 1598.62 1779.44C1604.22 1764.12 1613.5 1749.13 1626.57 1737.77C1639.39 1726.2 1655.56 1718.61 1671.3 1714.77C1687.1 1710.61 1704.43 1709.23 1721.32 1712.71C1738.19 1716.1 1753.92 1724.39 1766.18 1735.51C1790.71 1758.03 1803.1 1788.94 1804.86 1819.02C1805.05 1822.21 1802.61 1824.94 1799.43 1825.13C1796.83 1825.28 1794.54 1823.7 1793.67 1821.38L1793.64 1821.27C1783.94 1795.22 1768.73 1771.69 1748.36 1757.6C1738.28 1750.57 1727.18 1746.07 1715.63 1744.56C1704.08 1742.97 1692.08 1744.38 1680.2 1747.73C1656.07 1754.01 1637.84 1768.79 1626.77 1791.36C1615.51 1813.67 1610.94 1841.62 1609.38 1869.33L1609.36 1869.76C1609.18 1872.95 1606.45 1875.39 1603.26 1875.21C1600.84 1875.07 1598.84 1873.46 1598.11 1871.3Z" />
						</g>
					</g>
				</g>
			</g>
		</g>
	</g>
</svg>