<svg xmlns="http://www.w3.org/2000/svg" viewBox="0 0 4000 4000" width="4000" height="4000">
	<style>
		tspan { white-space:pre }
		.shp0 { fill: #000072 } 
		.shp1 { fill: #52a51c } 
		.shp2 { fill: #ffffff } 
		.shp3 { fill: #ecf4a2 } 
		.shp4 { fill: #e7ed77 } 
		.shp5 { fill: #b5e924 } 
		.shp6 { fill: #abaf5f } 
		.shp7 { fill: #fda098 } 
	</style>
	<g id="Layer 1">
		<g id="&lt;Group&gt;">
			<g id="&lt;Group&gt;">
				<g id="&lt;Group&gt;" style="opacity: 0.2">
					<path id="&lt;Path&gt;" class="shp0" d="M2963.51 3424.09C2963.51 3492.25 2532.14 3547.5 2000.01 3547.5C1467.88 3547.5 1036.5 3492.25 1036.5 3424.09C1036.5 3355.93 1467.88 3300.67 2000.01 3300.67C2532.14 3300.67 2963.51 3355.93 2963.51 3424.09Z" />
				</g>
				<g id="&lt;Group&gt;">
					<g id="&lt;Group&gt;">
						<path id="&lt;Path&gt;" class="shp1" d="M2963.51 2469.09C2963.51 2998.65 2532.13 3427.94 2000 3427.94C1467.87 3427.94 1036.49 2998.65 1036.49 2469.09C1036.49 1939.54 1467.87 1510.25 2000 1510.25C2532.13 1510.25 2963.51 1939.54 2963.51 2469.09Z" />
					</g>
					<g id="&lt;Group&gt;">
						<path id="&lt;Compound Path&gt;" fill-rule="evenodd" class="shp0" d="M2000 3430.43C1467.34 3430.43 1033.98 2999.18 1033.98 2469.09C1033.98 1939 1467.34 1507.75 2000 1507.75C2532.66 1507.75 2966.01 1939 2966.01 2469.09C2966.01 2999.18 2532.66 3430.43 2000 3430.43ZM2000 1512.75C1470.09 1512.75 1038.98 1941.76 1038.98 2469.09C1038.98 2996.42 1470.09 3425.43 2000 3425.43C2529.9 3425.43 2961.01 2996.42 2961.01 2469.09C2961.01 1941.76 2529.9 1512.75 2000 1512.75Z" />
					</g>
				</g>
				<g id="&lt;Group&gt;" style="opacity: 0.302">
					<path id="&lt;Path&gt;" class="shp0" d="M2870.31 2533.03C2870.31 3023.56 2480.66 3421.22 2000 3421.22C1519.34 3421.22 1129.68 3023.56 1129.68 2533.03C1129.68 2042.5 1519.34 1644.84 2000 1644.84C2480.66 1644.84 2870.31 2042.5 2870.31 2533.03Z" />
				</g>
				<g id="&lt;Group&gt;" style="opacity: 0.4">
					<path id="&lt;Path&gt;" class="shp2" d="M2963.51 2464.1C2963.51 2476.25 2963.28 2488.35 2962.84 2500.37C2943.68 1987.6 2519.9 1577.79 1999.99 1577.79C1480.07 1577.79 1056.34 1987.6 1037.17 2500.37C1036.74 2488.35 1036.5 2476.25 1036.5 2464.1C1036.5 1934.55 1467.85 1505.26 1999.99 1505.26C2532.12 1505.26 2963.51 1934.55 2963.51 2464.1Z" />
				</g>
				<g id="&lt;Group&gt;">
					<path id="&lt;Compound Path&gt;" fill-rule="evenodd" class="shp0" d="M2000 3443.94C1459.89 3443.94 1020.48 3006.62 1020.48 2469.09C1020.48 1931.56 1459.89 1494.25 2000 1494.25C2540.1 1494.25 2979.51 1931.56 2979.51 2469.09C2979.51 3006.62 2540.1 3443.94 2000 3443.94ZM2000 1526.25C1477.54 1526.25 1052.49 1949.2 1052.49 2469.09C1052.49 2988.98 1477.54 3411.93 2000 3411.93C2522.46 3411.93 2947.51 2988.98 2947.51 2469.09C2947.51 1949.2 2522.46 1526.25 2000 1526.25Z" />
				</g>
				<g id="&lt;Group&gt;">
					<path id="&lt;Path&gt;" class="shp3" d="M2811.7 2507.75C2811.7 2984.33 2448.29 3370.66 2000 3370.66C1551.71 3370.66 1188.29 2984.33 1188.29 2507.75C1188.29 2031.18 1551.71 1644.85 2000 1644.85C2448.29 1644.85 2811.7 2031.18 2811.7 2507.75Z" />
					<path id="&lt;Compound Path&gt;" fill-rule="evenodd" class="shp0" d="M2000 3373.16C1551.04 3373.16 1185.8 2984.94 1185.8 2507.75C1185.8 2030.57 1551.04 1642.35 2000 1642.35C2448.96 1642.35 2814.2 2030.57 2814.2 2507.75C2814.2 2984.94 2448.96 3373.16 2000 3373.16ZM2000 1647.35C1553.8 1647.35 1190.8 2033.33 1190.8 2507.75C1190.8 2982.18 1553.8 3368.16 2000 3368.16C2446.2 3368.16 2809.2 2982.18 2809.2 2507.75C2809.2 2033.33 2446.2 1647.35 2000 1647.35Z" />
				</g>
				<g id="&lt;Group&gt;">
					<path id="&lt;Path&gt;" class="shp4" d="M2811.71 2507.75C2811.71 2984.34 2448.28 3370.66 1999.99 3370.66C1551.69 3370.66 1188.3 2984.34 1188.3 2507.75C1188.3 2214.27 1326.09 1955.02 1536.69 1799.14C1668.06 1701.89 1827.75 1644.84 1999.99 1644.84C2172.26 1644.84 2331.95 1701.89 2463.32 1799.14C2673.88 1955.02 2811.71 2214.31 2811.71 2507.75Z" />
					<path id="&lt;Compound Path&gt;" fill-rule="evenodd" class="shp0" d="M1999.99 3373.16C1551.04 3373.16 1185.8 2984.94 1185.8 2507.75C1185.8 2224.73 1316.42 1959.08 1535.2 1797.12C1672 1695.86 1832.72 1642.34 1999.99 1642.34C2167.28 1642.34 2328.01 1695.86 2464.81 1797.12C2683.59 1959.11 2814.21 2224.76 2814.21 2507.75C2814.21 2984.94 2448.95 3373.16 1999.99 3373.16ZM1999.99 1647.34C1833.8 1647.34 1674.11 1700.52 1538.18 1801.15C1320.66 1962.16 1190.8 2226.31 1190.8 2507.75C1190.8 2982.18 1553.8 3368.16 1999.99 3368.16C2446.2 3368.16 2809.21 2982.18 2809.21 2507.75C2809.21 2226.34 2679.35 1962.18 2461.83 1801.14C2325.9 1700.52 2166.2 1647.34 1999.99 1647.34Z" />
				</g>
				<g id="&lt;Group&gt;" style="opacity: 0.302">
					<path id="&lt;Path&gt;" class="shp0" d="M2463.32 1799.14C2348.38 1909.91 2183.33 1979.35 1999.99 1979.35C1816.64 1979.35 1651.63 1909.91 1536.69 1799.14C1668.06 1701.89 1827.75 1644.84 1999.99 1644.84C2172.26 1644.84 2331.95 1701.89 2463.32 1799.14Z" />
				</g>
				<g id="&lt;Group&gt;">
					<path id="&lt;Compound Path&gt;" fill-rule="evenodd" class="shp0" d="M2000 3386.66C1543.6 3386.66 1172.29 2992.38 1172.29 2507.75C1172.29 2023.13 1543.6 1628.85 2000 1628.85C2456.4 1628.85 2827.71 2023.13 2827.71 2507.75C2827.71 2992.38 2456.4 3386.66 2000 3386.66ZM2000 1660.85C1561.25 1660.85 1204.3 2040.77 1204.3 2507.75C1204.3 2974.74 1561.25 3354.66 2000 3354.66C2438.75 3354.66 2795.7 2974.74 2795.7 2507.75C2795.7 2040.77 2438.75 1660.85 2000 1660.85Z" />
				</g>
				<g id="&lt;Group&gt;">
					<path id="&lt;Path&gt;" class="shp5" d="M2654.83 1296.54C2654.83 1516.72 2481.07 1704.84 2236.07 1779.75L2236.07 1779.75C2236.07 1828.66 2207.29 1872.99 2162.61 1892.89L2162.61 1892.89C2059.11 1939 1940.9 1939 1837.4 1892.89L1837.4 1892.89C1792.73 1872.99 1763.95 1828.66 1763.95 1779.75L1763.95 1779.75C1518.94 1704.84 1345.18 1516.72 1345.18 1296.54C1345.18 1232.18 1360.03 1170.55 1387.13 1113.7C1370.94 1074.3 1361.91 1030.51 1361.91 984.4C1361.91 812.03 1487.99 672.31 1643.54 672.31C1732.64 672.31 1812.11 718.2 1863.68 789.8C1907.6 782.42 1953.27 778.57 2000.01 778.57C2046.7 778.57 2092.32 782.42 2136.28 789.8C2187.85 718.2 2267.33 672.31 2356.42 672.31C2511.98 672.31 2638.06 812.03 2638.06 984.4C2638.06 1030.51 2629.02 1074.25 2612.83 1113.66C2639.98 1170.55 2654.83 1232.13 2654.83 1296.54Z" />
				</g>
				<g id="&lt;Group&gt;" style="opacity: 0.349">
					<path id="&lt;Path&gt;" class="shp2" d="M1376.4 1138.1C1379.54 1148.41 1383.15 1158.49 1387.15 1168.29C1363.9 1216.97 1349.7 1269.11 1346.09 1323.5C1345.45 1314.58 1345.18 1305.57 1345.18 1296.52C1345.18 1241.26 1356.13 1188.01 1376.4 1138.1Z" />
					<path id="&lt;Compound Path&gt;" fill-rule="evenodd" class="shp0" d="M1343.59 1323.68C1342.98 1315.1 1342.68 1305.96 1342.68 1296.52C1342.68 1242.09 1353.24 1188.47 1374.09 1137.16L1376.74 1130.62L1378.79 1137.37C1381.84 1147.39 1385.43 1157.47 1389.47 1167.34L1389.89 1168.37L1389.41 1169.37C1365.83 1218.72 1352.1 1270.63 1348.58 1323.67L1343.59 1323.68ZM1376.13 1145.56C1358.57 1190.85 1349.07 1237.91 1347.82 1285.67C1354.18 1245.45 1366.45 1206.09 1384.42 1168.21C1381.39 1160.74 1378.61 1153.14 1376.13 1145.56Z" />
				</g>
				<g id="&lt;Group&gt;" style="opacity: 0.6">
					<path id="&lt;Path&gt;" class="shp2" d="M2636.94 1011.73C2624.52 852.12 2503.67 726.9 2356.43 726.9C2267.32 726.9 2187.85 772.76 2136.27 844.38C2092.31 837 2046.68 833.15 1999.99 833.15C1953.29 833.15 1907.62 837 1863.7 844.38C1812.12 772.76 1732.65 726.9 1643.54 726.9C1496.3 726.9 1375.45 852.12 1363.03 1011.73C1362.28 1002.72 1361.92 993.6 1361.92 984.39C1361.92 812.04 1488.01 672.3 1643.54 672.3C1732.65 672.3 1812.12 718.21 1863.7 789.78C1907.62 782.4 1953.29 778.56 1999.99 778.56C2046.68 778.56 2092.31 782.4 2136.27 789.78C2187.85 718.21 2267.32 672.3 2356.43 672.3C2511.96 672.3 2638.05 812.04 2638.05 984.39C2638.05 993.6 2637.7 1002.72 2636.94 1011.73Z" />
				</g>
				<g id="&lt;Group&gt;" style="opacity: 0.349">
					<path id="&lt;Path&gt;" class="shp2" d="M2654.84 1296.52C2654.84 1305.57 2654.56 1314.58 2653.92 1323.5C2650.31 1269.11 2636.07 1216.97 2612.82 1168.25C2616.87 1158.41 2620.44 1148.34 2623.57 1138.02C2643.89 1187.97 2654.84 1241.22 2654.84 1296.52Z" />
					<path id="&lt;Compound Path&gt;" fill-rule="evenodd" class="shp0" d="M2656.42 1323.68L2651.43 1323.67C2647.92 1270.71 2634.17 1218.78 2610.56 1169.33L2610.08 1168.33L2610.51 1167.3C2614.47 1157.67 2618.06 1147.57 2621.18 1137.29L2623.23 1130.54L2625.88 1137.08C2646.75 1188.38 2657.33 1242.03 2657.33 1296.52C2657.33 1306.14 2657.04 1315.02 2656.42 1323.68ZM2615.55 1168.17C2633.55 1206.12 2645.82 1245.51 2652.19 1285.7C2650.95 1237.88 2641.43 1190.79 2623.84 1145.48C2621.32 1153.22 2618.54 1160.83 2615.55 1168.17Z" />
				</g>
				<g id="&lt;Group&gt;" style="opacity: 0.349">
					<path id="&lt;Path&gt;" class="shp2" d="M1363.03 1011.73C1365.81 1047.84 1374.18 1082.16 1387.15 1113.7C1383.3 1121.71 1379.73 1129.85 1376.4 1138.1C1367 1106.95 1361.92 1073.63 1361.92 1038.99C1361.92 1029.78 1362.28 1020.7 1363.03 1011.73Z" />
					<path id="&lt;Compound Path&gt;" fill-rule="evenodd" class="shp0" d="M1376.06 1145.63L1374.01 1138.82C1364.33 1106.76 1359.42 1073.17 1359.42 1038.99C1359.42 1029.58 1359.79 1020.34 1360.54 1011.52L1365.52 1011.54C1368.22 1046.63 1376.27 1080.68 1389.47 1112.74L1389.89 1113.77L1389.41 1114.78C1385.65 1122.61 1382.06 1130.77 1378.72 1139.04L1376.06 1145.63ZM1364.45 1043.57C1364.83 1073.27 1368.99 1102.48 1376.81 1130.55C1379.24 1124.8 1381.79 1119.13 1384.42 1113.62C1375.25 1091.12 1368.57 1067.67 1364.45 1043.57Z" />
				</g>
				<g id="&lt;Group&gt;" style="opacity: 0.349">
					<path id="&lt;Path&gt;" class="shp2" d="M2638.05 1038.99C2638.05 1073.63 2632.93 1106.91 2623.57 1138.02C2620.24 1129.81 2616.63 1121.67 2612.82 1113.66C2625.75 1082.12 2634.16 1047.84 2636.94 1011.73C2637.7 1020.7 2638.05 1029.78 2638.05 1038.99Z" />
					<path id="&lt;Compound Path&gt;" fill-rule="evenodd" class="shp0" d="M2623.92 1145.53L2621.25 1138.96C2618.1 1131.18 2614.5 1123.03 2610.56 1114.73L2610.08 1113.73L2610.5 1112.71C2623.71 1080.52 2631.76 1046.48 2634.45 1011.54L2639.43 1011.52C2640.18 1020.36 2640.55 1029.6 2640.55 1038.99C2640.55 1073.03 2635.64 1106.59 2625.96 1138.74L2623.92 1145.53ZM2615.55 1113.58C2618.26 1119.32 2620.8 1124.98 2623.15 1130.49C2630.98 1102.33 2635.14 1073.13 2635.52 1043.53C2631.4 1067.55 2624.72 1091.01 2615.55 1113.58Z" />
				</g>
				<g id="&lt;Group&gt;" style="opacity: 0.302">
					<path id="&lt;Path&gt;" class="shp0" d="M2654.84 1296.52C2654.84 1516.73 2481.06 1704.83 2236.06 1779.74C2236.06 1804.22 2228.88 1827.51 2216.1 1847.19C2203.32 1866.86 2184.95 1882.93 2162.62 1892.89C2110.84 1915.94 2055.45 1927.45 1999.99 1927.45C1944.6 1927.45 1889.13 1915.94 1837.39 1892.89C1815.06 1882.93 1796.69 1866.86 1783.91 1847.19C1771.14 1827.51 1763.95 1804.22 1763.95 1779.74C1641.48 1742.28 1536.77 1676.54 1462.7 1592.63C1388.62 1508.71 1345.18 1406.62 1345.18 1296.52C1345.18 1280.85 1346.05 1265.3 1347.79 1249.98C1358.07 1342.35 1399.1 1427.77 1462.7 1499.82C1536.77 1583.74 1641.48 1649.48 1763.95 1686.97C1931.56 1736.73 2122.62 1721.27 2236.06 1686.97C2463.72 1617.34 2629.88 1449.99 2652.22 1249.98C2653.96 1265.3 2654.84 1280.81 2654.84 1296.52Z" />
				</g>
				<g id="&lt;Group&gt;">
					<path id="&lt;Compound Path&gt;" fill-rule="evenodd" class="shp0" d="M2000 1938.77C1935.52 1938.77 1871.04 1925.4 1810.97 1898.63C1772.69 1881.58 1747.94 1843.47 1747.94 1801.56C1747.94 1795.58 1744.11 1790.27 1738.39 1788.34C1489.81 1704.57 1329.18 1511.52 1329.18 1296.54C1329.18 1233.49 1342.81 1171.85 1369.71 1113.2C1353.91 1072.44 1345.91 1029.14 1345.91 984.4C1345.91 803.49 1479.43 656.31 1643.54 656.31C1731.75 656.31 1814.02 698.51 1870.72 772.46C1955.04 759.35 2044.73 759.33 2129.24 772.46C2185.95 698.51 2268.22 656.31 2356.42 656.31C2520.54 656.31 2654.06 803.49 2654.06 984.4C2654.06 1029.12 2646.05 1072.39 2630.26 1113.15C2657.18 1171.81 2670.83 1233.47 2670.83 1296.54C2670.83 1511.52 2510.21 1704.57 2261.62 1788.34C2255.9 1790.27 2252.07 1795.58 2252.07 1801.56C2252.07 1843.47 2227.32 1881.58 2189.04 1898.63C2128.97 1925.4 2064.49 1938.77 2000 1938.77ZM1643.54 688.31C1497.08 688.31 1377.91 821.13 1377.91 984.4C1377.91 1027.37 1385.99 1068.82 1401.93 1107.62L1404.63 1114.18L1401.58 1120.59C1374.77 1176.8 1361.18 1236 1361.18 1296.54C1361.18 1497.56 1513.26 1678.7 1748.61 1758.02C1767.35 1764.34 1779.95 1781.84 1779.95 1801.56C1779.95 1830.85 1797.24 1857.48 1823.99 1869.4C1935.85 1919.24 2064.16 1919.24 2176.02 1869.4C2202.77 1857.48 2220.06 1830.85 2220.06 1801.56C2220.06 1781.84 2232.66 1764.34 2251.4 1758.02C2486.75 1678.7 2638.83 1497.56 2638.83 1296.54C2638.83 1235.99 2625.22 1176.77 2598.39 1120.55L2595.34 1114.14L2598.03 1107.58C2613.97 1068.78 2622.06 1027.34 2622.06 984.4C2622.06 821.13 2502.89 688.31 2356.42 688.31C2275.5 688.31 2200 728.71 2149.27 799.15L2143.45 807.23L2133.64 805.58C2046.53 790.96 1953.19 790.98 1866.33 805.58L1856.51 807.23L1850.7 799.15C1799.97 728.71 1724.47 688.31 1643.54 688.31Z" />
				</g>
				<g id="&lt;Group&gt;">
					<path id="&lt;Path&gt;" class="shp0" d="M1864.05 1268.33C1869.81 1285.3 1876.71 1299.59 1886.22 1311.31C1895.61 1323.05 1907.02 1332.53 1919.98 1340.37C1932.92 1348.17 1947.26 1354.58 1962.51 1358.98C1977.77 1363.35 1993.91 1365.57 2010 1365.36C2042.24 1365.03 2074.1 1355.76 2099.93 1340.22C2106.42 1336.33 2112.34 1331.82 2117.96 1327.02C2120.84 1324.66 2123.04 1321.76 2125.78 1319.24C2128.22 1316.51 2130.38 1313.58 2132.9 1310.79C2142.07 1299.09 2149.04 1285.29 2155.96 1268.33L2155.98 1268.28C2156.58 1266.81 2158.25 1266.11 2159.71 1266.71C2160.47 1267.02 2161.02 1267.62 2161.3 1268.33C2168.14 1286.07 2166.85 1307.25 2158.35 1325.57C2155.96 1329.94 2153.68 1334.52 2150.84 1338.66C2147.78 1342.6 2144.83 1346.77 2141.38 1350.36L2136.13 1355.7C2134.38 1357.49 2132.63 1359.28 2130.63 1360.73C2126.7 1363.67 2122.99 1367.13 2118.79 1369.59C2102.41 1380.45 2084.22 1387.49 2065.8 1391.69C2047.36 1395.94 2028.64 1397.64 2010 1397.57C1991.37 1397.27 1972.75 1395.38 1954.34 1391.2C1935.98 1387.03 1917.65 1380.37 1901.32 1369.43C1885.08 1358.62 1870.72 1343.4 1862.56 1325.05C1854.39 1306.75 1853.03 1286.06 1858.72 1268.33C1859.19 1266.86 1860.76 1266.04 1862.24 1266.52C1863.11 1266.8 1863.75 1267.46 1864.03 1268.27L1864.05 1268.33Z" />
				</g>
				<g id="&lt;Group&gt;">
					<g id="&lt;Group&gt;">
						<path id="&lt;Path&gt;" class="shp6" d="M2009.71 2000.88C2014.48 2055.35 2017.33 2109.82 2020.01 2164.29C2021.12 2191.52 2022.51 2218.75 2023.38 2245.99L2025.92 2327.69C2028.72 2436.63 2029.48 2545.56 2028.97 2654.5C2028.76 2708.97 2028.25 2763.44 2027.3 2817.9L2026.04 2899.6L2023.98 2981.31C2020.97 3090.24 2017.06 3199.18 2009.71 3308.12C2009.35 3313.48 2004.71 3317.54 1999.34 3317.18C1994.42 3316.85 1990.6 3312.91 1990.28 3308.12C1982.94 3199.18 1979.03 3090.24 1976.02 2981.31L1973.96 2899.6L1972.7 2817.9C1971.75 2763.44 1971.24 2708.97 1971.03 2654.5C1970.51 2545.56 1971.28 2436.63 1974.08 2327.69L1976.62 2245.99C1977.49 2218.75 1978.88 2191.52 1979.98 2164.29C1982.66 2109.82 1985.52 2055.35 1990.28 2000.88C1990.75 1995.52 1995.48 1991.55 2000.85 1992.02C2005.64 1992.43 2009.31 1996.25 2009.71 2000.88Z" />
					</g>
					<g id="&lt;Group&gt;">
						<path id="&lt;Path&gt;" class="shp6" d="M1636.51 2038.49L1680.31 2055.24C1687.44 2058.28 1694.89 2060.55 1702.24 2063.02C1709.59 2065.47 1716.96 2067.84 1724.23 2070.43C1731.44 2073.17 1738.96 2075.04 1746.38 2077.16C1753.8 2079.26 1761.24 2081.26 1768.59 2083.51C1775.89 2085.91 1783.47 2087.38 1790.94 2089.17L1813.38 2094.37C1873.3 2107.67 1934.38 2114.29 1995.54 2114.94C2010.83 2114.96 2026.12 2114.17 2041.41 2113.85L2087.21 2110.42C2102.41 2108.59 2117.56 2106.28 2132.78 2104.3L2178.09 2095.92C2238.27 2083.06 2297.09 2063.31 2354.5 2038.53C2358.09 2036.97 2362.27 2038.61 2363.83 2042.21C2365.23 2045.43 2364.04 2049.12 2361.19 2050.98C2307.79 2085.77 2248.46 2111.99 2186.61 2129.77L2139.75 2141.55C2123.89 2144.35 2108.03 2147.31 2092.1 2149.86C2076.07 2151.58 2060.05 2153.85 2043.96 2155.09C2027.82 2155.66 2011.69 2156.68 1995.54 2156.86C1930.91 2157.46 1866.21 2148.43 1804.17 2130.95C1742.25 2113.16 1682.85 2086.42 1629.94 2051.01C1626.67 2048.83 1625.8 2044.41 1627.98 2041.15C1629.86 2038.34 1633.4 2037.3 1636.43 2038.46L1636.51 2038.49Z" />
					</g>
					<g id="&lt;Group&gt;">
						<path id="&lt;Path&gt;" class="shp6" d="M1339.79 2444.28C1392.02 2467.62 1444.26 2489.57 1497.86 2508.02C1511.12 2512.95 1524.67 2517.09 1538.11 2521.46C1551.49 2526 1565.18 2529.61 1578.68 2533.75C1592.15 2537.98 1605.87 2541.36 1619.5 2545.03C1633.08 2548.85 1646.9 2551.78 1660.61 2555.04C1770.46 2580.78 1882.95 2593.67 1995.54 2594.36C2051.85 2594.55 2108.15 2591.27 2164.17 2585.17C2178.17 2583.58 2192.12 2581.59 2206.1 2579.82L2247.87 2573.2L2289.49 2565.58L2330.88 2556.67C2441 2531.42 2548.24 2493.13 2651.21 2444.32C2655.03 2442.5 2659.59 2444.13 2661.4 2447.94C2663.1 2451.51 2661.75 2455.76 2658.45 2457.77C2559.79 2517.4 2452.01 2562.69 2340.09 2593.25L2297.91 2604L2255.4 2613.45C2241.13 2616.09 2226.86 2618.83 2212.54 2621.29C2198.18 2623.45 2183.85 2625.82 2169.45 2627.79C2111.87 2635.74 2053.7 2639.49 1995.54 2639.66C1879.2 2640.32 1762.79 2624.81 1650.65 2594.57C1538.66 2563.99 1430.77 2518.19 1332.69 2457.81L1332.65 2457.79C1329.05 2455.57 1327.93 2450.85 1330.15 2447.26C1332.18 2443.95 1336.33 2442.73 1339.79 2444.28Z" />
					</g>
					<g id="&lt;Group&gt;">
						<path id="&lt;Path&gt;" class="shp6" d="M1536.46 2918.24C1545.8 2922.17 1555.15 2925.64 1564.45 2929.27L1592.17 2940.29C1601.25 2944.27 1610.76 2947.25 1620.13 2950.49C1629.51 2953.71 1638.9 2956.84 1648.18 2960.21C1657.39 2963.78 1667 2966.24 1676.47 2969.02C1685.95 2971.78 1695.45 2974.42 1704.86 2977.34C1714.2 2980.46 1723.89 2982.39 1733.45 2984.73L1762.15 2991.54C1838.9 3008.56 1917.13 3017.64 1995.54 3018.11C2015.13 3018.04 2034.72 3017.17 2054.33 3016.77C2073.89 3015.49 2093.43 3013.75 2113.02 3012.28C2132.49 3009.87 2151.9 3006.88 2171.39 3004.28L2229.37 2993.3C2306.37 2976.48 2381.54 2950.74 2454.53 2918.28C2458.52 2916.5 2463.2 2918.29 2464.98 2922.28C2466.6 2925.91 2465.26 2930.11 2462.01 2932.18C2393.47 2975.81 2317.74 3008.78 2238.89 3031.09C2219.01 3036 2199.14 3041.11 2179.17 3045.86C2158.96 3049.37 2138.76 3053.1 2118.47 3056.3L2087.85 3059.76C2077.63 3060.8 2067.44 3062.31 2057.18 3062.87L2026.37 3064.22C2016.09 3064.53 2005.82 3065.42 1995.54 3065.18C1913.28 3065.57 1830.88 3054.68 1751.87 3032.38C1672.92 3010.06 1597.15 2976.47 1529.13 2932.22L1529.08 2932.19C1525.41 2929.8 1524.37 2924.9 1526.76 2921.23C1528.88 2917.96 1533 2916.78 1536.46 2918.24Z" />
					</g>
				</g>
				<g id="&lt;Group&gt;" style="opacity: 0.349">
					<path id="&lt;Path&gt;" class="shp0" d="M2573.56 2060.5C2503.12 2000.87 2395.94 2024.41 2354.54 2106.89C2345.13 2125.65 2332.97 2146.1 2317.36 2168.2C2283.45 2216.2 2200.58 2251.48 2163.23 2321.73C2043.2 2547.53 2367.03 2737.68 2541.94 2537.6C2722.33 2331.26 2688.03 2164.83 2578.8 2065.11C2577.13 2063.58 2575.38 2062.04 2573.56 2060.5Z" />
				</g>
				<g id="&lt;Group&gt;" style="opacity: 0.349">
					<path id="&lt;Path&gt;" class="shp0" d="M1426.88 2060.5C1497.32 2000.87 1604.5 2024.41 1645.9 2106.89C1655.31 2125.65 1667.47 2146.1 1683.08 2168.2C1716.98 2216.2 1799.86 2251.48 1837.2 2321.73C1957.24 2547.53 1633.4 2737.68 1458.49 2537.6C1278.1 2331.26 1312.4 2164.83 1421.63 2065.11C1423.31 2063.58 1425.06 2062.04 1426.88 2060.5Z" />
				</g>
				<g id="&lt;Group&gt;">
					<path id="&lt;Path&gt;" class="shp5" d="M2577.06 1995.29C2508.51 1937.26 2404.2 1960.17 2363.92 2040.44C2354.75 2058.69 2342.92 2078.59 2327.73 2100.1C2294.74 2146.82 2214.08 2181.15 2177.74 2249.51C2060.93 2469.26 2376.07 2654.31 2546.29 2459.6C2721.84 2258.79 2688.46 2096.82 2582.16 1999.78C2580.54 1998.29 2578.83 1996.8 2577.06 1995.29Z" />
				</g>
				<g id="&lt;Group&gt;" style="opacity: 0.6">
					<path id="&lt;Path&gt;" class="shp2" d="M2656.74 2110.28C2642.1 2087.26 2624.13 2066.35 2603.65 2047.67C2601.91 2046.08 2600.04 2044.45 2598.14 2042.83C2524.02 1980.1 2411.27 2004.86 2367.74 2091.63C2357.82 2111.35 2345.05 2132.89 2328.62 2156.1C2292.95 2206.61 2205.75 2243.75 2166.47 2317.62C2160.87 2328.14 2156.23 2338.53 2152.42 2348.85C2151.75 2317.46 2159.44 2283.9 2177.73 2249.5C2214.08 2181.14 2294.74 2146.82 2327.75 2100.08C2342.9 2078.58 2354.77 2058.7 2363.93 2040.45C2404.2 1960.18 2508.51 1937.25 2577.07 1995.3C2578.82 1996.8 2580.52 1998.27 2582.15 1999.78C2615.72 2030.41 2641.98 2067.51 2656.74 2110.28Z" />
				</g>
				<g id="&lt;Group&gt;" style="opacity: 0.349">
					<path id="&lt;Path&gt;" class="shp0" d="M2546.28 2459.58C2387.9 2640.78 2104.02 2493.15 2159.48 2294.69C2201.06 2435.74 2416.07 2509.02 2546.28 2360.08C2615.95 2280.37 2652.73 2206.77 2665.07 2140.95C2682.85 2228.67 2653.57 2336.86 2546.28 2459.58Z" />
				</g>
				<g id="&lt;Group&gt;">
					<path id="&lt;Compound Path&gt;" fill-rule="evenodd" class="shp0" d="M2371.85 2557.29C2319.99 2557.29 2269.83 2540.95 2229.84 2513.38C2158.77 2464.4 2098.79 2363.94 2163.61 2242C2186.29 2199.34 2224.35 2169.52 2257.93 2143.22C2280.68 2125.4 2302.17 2108.56 2314.66 2090.87C2328.51 2071.27 2340.27 2051.89 2349.61 2033.26C2371.32 1990.02 2410.83 1959.69 2458 1950.05C2504.26 1940.59 2551.43 1952.63 2587.4 1983.08L2587.41 1983.09C2589.34 1984.73 2591.19 1986.35 2592.95 1987.96C2654.08 2043.76 2686.23 2113.92 2685.92 2190.84C2685.57 2279.73 2642.64 2373.7 2558.34 2470.13C2504.61 2531.59 2436.88 2557.29 2371.85 2557.29ZM2488.96 1978.91C2480.81 1978.91 2472.59 1979.73 2464.41 1981.4C2426.9 1989.07 2395.49 2013.2 2378.22 2047.62C2368.15 2067.67 2355.57 2088.43 2340.8 2109.33C2325.6 2130.85 2302.31 2149.1 2277.66 2168.41C2245.07 2193.95 2211.36 2220.35 2191.87 2257.02C2136.93 2360.37 2187.77 2445.52 2248 2487.03C2324.05 2539.46 2446.07 2549.95 2534.25 2449.07C2679.89 2282.47 2693.43 2123.01 2571.38 2011.59C2569.89 2010.24 2568.34 2008.88 2566.72 2007.5C2544.65 1988.82 2517.24 1978.91 2488.96 1978.91Z" />
				</g>
				<g id="&lt;Group&gt;">
					<path id="&lt;Path&gt;" class="shp0" d="M2191.18 2438.59C2153.21 2465.12 2109.79 2468.55 2094.21 2446.25C2078.63 2423.95 2096.78 2384.36 2134.75 2357.82C2172.73 2331.29 2229.16 2412.05 2191.18 2438.59Z" />
				</g>
				<g id="&lt;Group&gt;">
					<path id="&lt;Path&gt;" class="shp5" d="M1424.55 1995.29C1493.1 1937.26 1597.41 1960.17 1637.7 2040.44C1646.86 2058.69 1658.69 2078.59 1673.88 2100.1C1706.88 2146.82 1787.53 2181.15 1823.87 2249.51C1940.69 2469.26 1625.54 2654.31 1455.32 2459.6C1279.77 2258.79 1313.15 2096.82 1419.45 1999.78C1421.08 1998.29 1422.78 1996.8 1424.55 1995.29Z" />
				</g>
				<g id="&lt;Group&gt;">
					<path id="&lt;Path&gt;" class="shp0" d="M1635.97 2557.43C1655.34 2599.51 1691.08 2624.4 1715.79 2613.02C1740.51 2601.64 1744.83 2558.3 1725.46 2516.22C1706.09 2474.14 1616.59 2515.35 1635.97 2557.43Z" />
				</g>
				<g id="&lt;Group&gt;">
					<path id="&lt;Path&gt;" class="shp7" d="M1766.99 1325.81C1766.99 1368.44 1713.99 1402.99 1648.61 1402.99C1583.23 1402.99 1530.23 1368.44 1530.23 1325.81C1530.23 1283.19 1583.23 1248.63 1648.61 1248.63C1713.99 1248.63 1766.99 1283.19 1766.99 1325.81Z" />
				</g>
				<g id="&lt;Group&gt;">
					<path id="&lt;Path&gt;" class="shp7" d="M2503.51 1325.81C2503.51 1368.44 2450.51 1402.99 2385.13 1402.99C2319.75 1402.99 2266.75 1368.44 2266.75 1325.81C2266.75 1283.19 2319.75 1248.63 2385.13 1248.63C2450.51 1248.63 2503.51 1283.19 2503.51 1325.81Z" />
				</g>
				<g id="&lt;Group&gt;" style="opacity: 0.349">
					<path id="&lt;Path&gt;" class="shp0" d="M1455.34 2459.58C1613.72 2640.78 1897.6 2493.15 1842.14 2294.69C1800.56 2435.74 1585.55 2509.02 1455.34 2360.08C1385.67 2280.37 1348.89 2206.77 1336.55 2140.95C1318.77 2228.67 1348.05 2336.86 1455.34 2459.58Z" />
				</g>
				<g id="&lt;Group&gt;" style="opacity: 0.302">
					<path id="&lt;Path&gt;" class="shp0" d="M2811.71 2507.75C2811.71 2984.34 2448.28 3370.66 1999.99 3370.66C1551.69 3370.66 1188.3 2984.34 1188.3 2507.75C1188.3 2481.96 1189.37 2456.41 1191.47 2431.21C1227.89 2826.43 1575.97 3136.37 1999.99 3136.37C2424 3136.37 2772.12 2826.43 2808.54 2431.21C2810.64 2456.41 2811.71 2481.96 2811.71 2507.75Z" />
				</g>
				<g id="&lt;Group&gt;">
					<path id="&lt;Path&gt;" class="shp5" d="M2690.32 3170.75C2653.66 3307.57 2540.66 3458.22 2385.53 3416.65C2230.4 3375.08 2207.87 3188.11 2244.53 3051.29C2281.19 2914.47 2334.51 2809.88 2533.81 2863.28C2733.1 2916.69 2726.98 3033.93 2690.32 3170.75Z" />
				</g>
				<g id="&lt;Group&gt;" style="opacity: 0.6">
					<path id="&lt;Path&gt;" class="shp2" d="M2690.31 3170.73C2689.16 3175.1 2687.89 3179.46 2686.58 3183.83C2715.14 3060.47 2706.3 2956.76 2522.28 2907.48C2334.45 2857.17 2276.29 2947.12 2239.51 3072.14C2241.02 3065.08 2242.72 3058.13 2244.55 3051.31C2281.21 2914.47 2334.49 2809.88 2533.82 2863.28C2733.12 2916.69 2726.97 3033.93 2690.31 3170.73Z" />
				</g>
				<g id="&lt;Group&gt;" style="opacity: 0.302">
					<path id="&lt;Path&gt;" class="shp0" d="M2703.44 3114.51C2699.95 3132.8 2695.42 3151.57 2690.31 3170.73C2653.65 3307.57 2540.65 3458.22 2385.52 3416.64C2230.38 3375.06 2207.89 3188.11 2244.55 3051.31C2248.56 3036.39 2252.76 3021.83 2257.32 3007.82C2238 3128.52 2272.88 3273.65 2412.81 3311.11C2557.51 3349.91 2662.49 3232.83 2703.44 3114.51Z" />
				</g>
				<g id="&lt;Group&gt;">
					<path id="&lt;Compound Path&gt;" fill-rule="evenodd" class="shp0" d="M2437.61 3439.7C2419.11 3439.7 2400.34 3437.18 2381.39 3432.1C2305.44 3411.75 2252.32 3357.16 2227.76 3274.23C2207.91 3207.15 2208.38 3124.38 2229.08 3047.15C2246.69 2981.42 2269.62 2914.92 2317.79 2873.79C2368.74 2830.28 2440.74 2821.79 2537.95 2847.83C2635.15 2873.88 2693.27 2917.24 2715.63 2980.4C2736.77 3040.1 2723.39 3109.16 2705.77 3174.89C2685.08 3252.11 2644.11 3324.03 2593.36 3372.2C2546.28 3416.88 2493.24 3439.7 2437.61 3439.7ZM2439.08 2865.16C2397.57 2865.16 2364.34 2876.12 2338.57 2898.12C2297.05 2933.58 2276.26 2994.69 2259.99 3055.43C2240.78 3127.12 2240.21 3203.56 2258.45 3265.15C2273.25 3315.14 2308.03 3379.32 2389.67 3401.2C2471.29 3423.06 2533.52 3384.88 2571.33 3348.99C2617.92 3304.77 2655.65 3238.3 2674.86 3166.61C2691.14 3105.86 2703.69 3042.55 2685.46 2991.07C2666.88 2938.6 2615.92 2901.86 2529.67 2878.74C2495.9 2869.69 2465.78 2865.16 2439.08 2865.16Z" />
				</g>
				<g id="&lt;Group&gt;">
					<path id="&lt;Path&gt;" class="shp0" d="M2363.12 2840.62C2374.45 2789.26 2408.09 2753.02 2438.26 2759.68C2468.42 2766.33 2483.69 2813.37 2472.35 2864.73C2461.02 2916.09 2351.78 2891.99 2363.12 2840.62Z" />
				</g>
				<g id="&lt;Group&gt;">
					<path id="&lt;Path&gt;" class="shp0" d="M2482.8 2855.83C2498.36 2805.59 2534.9 2772.27 2564.41 2781.41C2593.91 2790.55 2605.22 2838.69 2589.66 2888.93C2574.09 2939.17 2467.24 2906.07 2482.8 2855.83Z" />
				</g>
				<g id="&lt;Group&gt;">
					<path id="&lt;Path&gt;" class="shp0" d="M2594.72 2905.04C2618.07 2857.91 2659.44 2830.82 2687.12 2844.54C2714.8 2858.25 2718.3 2907.58 2694.95 2954.7C2671.6 3001.83 2571.36 2952.17 2594.72 2905.04Z" />
				</g>
				<g id="&lt;Group&gt;">
					<path id="&lt;Path&gt;" class="shp5" d="M1314.53 3170.75C1351.19 3307.57 1464.2 3458.22 1619.32 3416.65C1774.45 3375.08 1796.98 3188.11 1760.32 3051.29C1723.66 2914.47 1670.34 2809.88 1471.04 2863.28C1271.75 2916.69 1277.87 3033.93 1314.53 3170.75Z" />
				</g>
				<g id="&lt;Group&gt;">
					<path id="&lt;Path&gt;" class="shp5" d="M2080.73 3364.32L2080.73 3364.32C2033.24 3407.6 1961.27 3409.72 1911.32 3369.32L1888.86 3351.15C1966.12 3296.32 2018.11 3217.02 2044.83 3113.24C2073.34 3002.53 2124.96 3146.95 2114.65 3272.66C2112.1 3303.75 2100.79 3334.3 2080.73 3364.32Z" />
				</g>
				<g id="&lt;Group&gt;" style="opacity: 0.302">
					<path id="&lt;Path&gt;" class="shp0" d="M2114.65 3272.66C2112.11 3303.74 2100.8 3334.29 2080.73 3364.31C2033.23 3407.6 1961.26 3409.74 1911.31 3369.31L1888.85 3351.14C1895.23 3346.62 1903.28 3339.9 1913.02 3330.98C1914.95 3331.85 1916.89 3332.68 1918.85 3333.45C1984.24 3359.2 2057.09 3322 2079.56 3255.41C2083.63 3243.37 2086.86 3230.19 2087.95 3216.88C2091.99 3167.36 2086.48 3114.91 2076.52 3076.34C2100.05 3093.01 2121.67 3187.16 2114.65 3272.66Z" />
				</g>
				<g id="&lt;Group&gt;">
					<path id="&lt;Compound Path&gt;" fill-rule="evenodd" class="shp0" d="M1993.16 3414.52C1960.78 3414.52 1928.33 3403.65 1901.26 3381.76L1862.38 3350.32L1879.6 3338.1C1880.69 3337.32 1991.28 3257.01 2029.34 3109.25C2032.91 3095.37 2043.82 3053.15 2073.6 3058.13C2117.9 3065.59 2137.24 3192.98 2130.6 3273.97C2126.48 3324.15 2095.35 3371.23 2094.03 3373.21L2092.94 3374.83L2091.5 3376.15C2063.52 3401.66 2028.38 3414.52 1993.16 3414.52ZM1914.4 3351.23L1921.39 3356.88C1964.98 3392.15 2026.5 3390.78 2068.43 3353.86C2073.47 3345.82 2095.65 3308.54 2098.71 3271.35C2105.63 3186.89 2083.63 3108.04 2069.9 3091.81C2067.7 3095.23 2064.12 3102.5 2060.32 3117.23C2027.93 3243.01 1948.83 3321.82 1914.4 3351.23ZM2080.73 3364.32L2080.78 3364.32L2080.73 3364.32ZM2080.73 3364.32L2080.78 3364.32L2080.73 3364.32Z" />
				</g>
				<g id="&lt;Group&gt;" style="opacity: 0.6">
					<path id="&lt;Path&gt;" class="shp2" d="M1345.18 2110.28C1359.82 2087.26 1377.79 2066.35 1398.26 2047.67C1400.01 2046.08 1401.87 2044.45 1403.78 2042.83C1477.89 1980.1 1590.65 2004.86 1634.17 2091.63C1644.09 2111.35 1656.87 2132.89 1673.3 2156.1C1708.96 2206.61 1796.17 2243.75 1835.45 2317.62C1841.04 2328.14 1845.69 2338.53 1849.5 2348.85C1850.17 2317.46 1842.47 2283.9 1824.18 2249.5C1787.84 2181.14 1707.18 2146.82 1674.17 2100.08C1659.01 2078.58 1647.15 2058.7 1637.98 2040.45C1597.71 1960.18 1493.4 1937.25 1424.84 1995.3C1423.1 1996.8 1421.39 1998.27 1419.77 1999.78C1386.2 2030.41 1359.94 2067.51 1345.18 2110.28Z" />
				</g>
				<g id="&lt;Group&gt;">
					<path id="&lt;Compound Path&gt;" fill-rule="evenodd" class="shp0" d="M1629.76 2557.29C1564.72 2557.29 1497.01 2531.6 1443.27 2470.13C1358.97 2373.7 1316.04 2279.73 1315.69 2190.84C1315.38 2113.92 1347.53 2043.77 1408.66 1987.96C1410.43 1986.34 1412.29 1984.72 1414.22 1983.08C1450.19 1952.64 1497.36 1940.6 1543.61 1950.05C1590.79 1959.69 1630.3 1990.02 1652 2033.26C1661.33 2051.87 1673.09 2071.25 1686.95 2090.87C1699.44 2108.56 1720.93 2125.4 1743.68 2143.22C1777.26 2169.52 1815.32 2199.34 1838 2242C1902.82 2363.94 1842.84 2464.4 1771.77 2513.38C1731.79 2540.94 1681.62 2557.28 1629.76 2557.29ZM1512.66 1978.91C1484.38 1978.91 1456.96 1988.82 1434.89 2007.5C1433.27 2008.88 1431.72 2010.24 1430.23 2011.59C1308.19 2123.01 1321.72 2282.47 1467.36 2449.07C1555.54 2549.93 1677.55 2539.46 1753.61 2487.03C1813.84 2445.52 1864.68 2360.37 1809.75 2257.02C1790.25 2220.35 1756.54 2193.95 1723.95 2168.41C1699.3 2149.1 1676.01 2130.85 1660.81 2109.33C1646.04 2088.41 1633.45 2067.65 1623.39 2047.62C1606.12 2013.2 1574.71 1989.07 1537.21 1981.4C1529.02 1979.73 1520.8 1978.91 1512.66 1978.91ZM1424.56 1995.29L1424.6 1995.29L1424.56 1995.29Z" />
				</g>
				<g id="&lt;Group&gt;" style="opacity: 0.6">
					<path id="&lt;Path&gt;" class="shp2" d="M1312.31 3170.73C1313.46 3175.1 1314.73 3179.46 1316.04 3183.83C1287.47 3060.47 1296.32 2956.76 1480.34 2907.48C1668.16 2857.17 1726.33 2947.12 1763.11 3072.14C1761.6 3065.08 1759.89 3058.13 1758.07 3051.31C1721.41 2914.47 1668.12 2809.88 1468.79 2863.28C1269.5 2916.69 1275.65 3033.93 1312.31 3170.73Z" />
				</g>
				<g id="&lt;Group&gt;" style="opacity: 0.302">
					<path id="&lt;Path&gt;" class="shp0" d="M1299.18 3114.51C1302.67 3132.8 1307.19 3151.57 1312.31 3170.73C1348.97 3307.57 1461.97 3458.22 1617.1 3416.64C1772.23 3375.06 1794.73 3188.11 1758.07 3051.31C1754.06 3036.39 1749.85 3021.83 1745.29 3007.82C1764.61 3128.52 1729.74 3273.65 1589.8 3311.11C1445.1 3349.91 1340.12 3232.83 1299.18 3114.51Z" />
				</g>
				<g id="&lt;Group&gt;">
					<path id="&lt;Compound Path&gt;" fill-rule="evenodd" class="shp0" d="M1567.63 3439.64C1437.65 3439.64 1336.61 3314.96 1299.08 3174.89C1264.96 3047.55 1246.97 2906.76 1466.9 2847.83C1686.83 2788.91 1741.66 2919.81 1775.78 3047.15C1796.47 3124.38 1796.95 3207.15 1777.08 3274.23C1752.53 3357.16 1699.41 3411.75 1623.46 3432.1C1604.35 3437.23 1585.71 3439.64 1567.63 3439.64ZM1329.99 3166.61C1361.25 3283.25 1463.01 3441.96 1615.18 3401.2C1696.82 3379.32 1731.6 3315.14 1746.4 3265.15C1764.63 3203.56 1764.08 3127.12 1744.87 3055.43C1704.5 2904.79 1649.58 2832 1475.19 2878.74C1300.81 2925.47 1289.62 3015.96 1329.99 3166.61Z" />
				</g>
				<g id="&lt;Group&gt;">
					<path id="&lt;Path&gt;" class="shp0" d="M1632.4 2840.62C1621.06 2789.26 1587.42 2753.02 1557.26 2759.68C1527.09 2766.33 1511.83 2813.37 1523.16 2864.73C1534.5 2916.09 1643.73 2891.99 1632.4 2840.62Z" />
				</g>
				<g id="&lt;Group&gt;">
					<path id="&lt;Path&gt;" class="shp0" d="M1512.72 2855.83C1497.15 2805.59 1460.62 2772.27 1431.11 2781.41C1401.6 2790.55 1390.3 2838.69 1405.86 2888.93C1421.42 2939.17 1528.28 2906.07 1512.72 2855.83Z" />
				</g>
				<g id="&lt;Group&gt;">
					<path id="&lt;Path&gt;" class="shp0" d="M1400.8 2905.04C1377.44 2857.91 1336.08 2830.82 1308.4 2844.54C1280.72 2858.25 1277.21 2907.58 1300.56 2954.7C1323.92 3001.83 1424.15 2952.17 1400.8 2905.04Z" />
				</g>
				<g id="&lt;Group&gt;">
					<g id="&lt;Group&gt;">
						<path id="&lt;Path&gt;" class="shp0" d="M1486.55 1015.4C1493.52 1116.6 1564.12 1184.36 1644.25 1166.75C1724.38 1149.14 1783.68 1052.82 1776.72 951.63C1769.75 850.43 1699.14 782.67 1619.01 800.28C1538.89 817.89 1479.58 914.2 1486.55 1015.4Z" />
					</g>
					<g id="&lt;Group&gt;">
						<path id="&lt;Path&gt;" class="shp2" d="M1550.04 934.15C1544.6 969.32 1557.48 999.44 1578.81 1001.41C1600.15 1003.38 1621.86 976.47 1627.3 941.29C1632.75 906.12 1619.86 876.01 1598.53 874.04C1577.19 872.07 1555.49 898.98 1550.04 934.15Z" />
					</g>
					<g id="&lt;Group&gt;">
						<path id="&lt;Path&gt;" class="shp2" d="M1671.76 1043.73C1669.95 1061.45 1677.13 1076.32 1687.81 1076.94C1698.48 1077.56 1708.6 1063.7 1710.41 1045.98C1712.22 1028.25 1705.04 1013.38 1694.36 1012.76C1683.69 1012.14 1673.57 1026 1671.76 1043.73Z" />
					</g>
				</g>
				<g id="&lt;Group&gt;">
					<g id="&lt;Group&gt;">
						<path id="&lt;Path&gt;" class="shp0" d="M2206.55 1015.4C2213.52 1116.6 2284.12 1184.36 2364.25 1166.75C2444.38 1149.14 2503.68 1052.82 2496.72 951.63C2489.75 850.43 2419.14 782.67 2339.01 800.28C2258.89 817.89 2199.58 914.2 2206.55 1015.4Z" />
					</g>
					<g id="&lt;Group&gt;">
						<path id="&lt;Path&gt;" class="shp2" d="M2270.04 934.15C2264.6 969.32 2277.48 999.44 2298.81 1001.41C2320.15 1003.38 2341.86 976.47 2347.3 941.29C2352.75 906.12 2339.86 876.01 2318.53 874.04C2297.19 872.07 2275.49 898.98 2270.04 934.15Z" />
					</g>
					<g id="&lt;Group&gt;">
						<path id="&lt;Path&gt;" class="shp2" d="M2391.76 1043.73C2389.95 1061.45 2397.13 1076.32 2407.81 1076.94C2418.48 1077.56 2428.6 1063.7 2430.41 1045.98C2432.22 1028.25 2425.04 1013.38 2414.36 1012.76C2403.69 1012.14 2393.57 1026 2391.76 1043.73Z" />
					</g>
				</g>
				<g id="&lt;Group&gt;">
					<path id="&lt;Path&gt;" class="shp0" d="M2262.17 2518.07C2230.92 2552.27 2189.3 2565.11 2169.22 2546.75C2149.14 2528.4 2158.19 2485.8 2189.45 2451.6C2220.7 2417.41 2293.43 2483.88 2262.17 2518.07Z" />
				</g>
				<g id="&lt;Group&gt;">
					<path id="&lt;Path&gt;" class="shp0" d="M2365.65 2557.43C2346.27 2599.51 2310.53 2624.4 2285.82 2613.02C2261.11 2601.64 2256.78 2558.3 2276.15 2516.22C2295.53 2474.14 2385.02 2515.35 2365.65 2557.43Z" />
				</g>
				<g id="&lt;Group&gt;">
					<path id="&lt;Path&gt;" class="shp0" d="M1810.43 2438.59C1848.4 2465.12 1891.82 2468.55 1907.4 2446.25C1922.98 2423.95 1904.83 2384.36 1866.86 2357.82C1828.89 2331.29 1772.45 2412.05 1810.43 2438.59Z" />
				</g>
				<g id="&lt;Group&gt;">
					<path id="&lt;Path&gt;" class="shp0" d="M1739.44 2518.07C1770.69 2552.27 1812.31 2565.11 1832.39 2546.75C1852.47 2528.4 1843.42 2485.8 1812.17 2451.6C1780.91 2417.41 1708.19 2483.88 1739.44 2518.07Z" />
				</g>
			</g>
		</g>
	</g>
</svg>